-- Merging decision tree log ---
manifest
ADDED from /Users/MacHome/Documents/clients/Elisa/WaygroupMigration/Waygroup/android/WaygroupNew/app/src/main/AndroidManifest.xml:2:1-185:12
	xmlns:android
		ADDED from /Users/MacHome/Documents/clients/Elisa/WaygroupMigration/Waygroup/android/WaygroupNew/app/src/main/AndroidManifest.xml:2:11-69
	package
		ADDED from /Users/MacHome/Documents/clients/Elisa/WaygroupMigration/Waygroup/android/WaygroupNew/app/src/main/AndroidManifest.xml:3:5-33
		INJECTED from /Users/MacHome/Documents/clients/Elisa/WaygroupMigration/Waygroup/android/WaygroupNew/app/src/main/AndroidManifest.xml
		INJECTED from /Users/MacHome/Documents/clients/Elisa/WaygroupMigration/Waygroup/android/WaygroupNew/app/src/main/AndroidManifest.xml
	android:versionName
		ADDED from /Users/MacHome/Documents/clients/Elisa/WaygroupMigration/Waygroup/android/WaygroupNew/app/src/main/AndroidManifest.xml:5:5-30
		INJECTED from /Users/MacHome/Documents/clients/Elisa/WaygroupMigration/Waygroup/android/WaygroupNew/app/src/main/AndroidManifest.xml
		INJECTED from /Users/MacHome/Documents/clients/Elisa/WaygroupMigration/Waygroup/android/WaygroupNew/app/src/main/AndroidManifest.xml
	android:versionCode
		ADDED from /Users/MacHome/Documents/clients/Elisa/WaygroupMigration/Waygroup/android/WaygroupNew/app/src/main/AndroidManifest.xml:4:5-29
		INJECTED from /Users/MacHome/Documents/clients/Elisa/WaygroupMigration/Waygroup/android/WaygroupNew/app/src/main/AndroidManifest.xml
		INJECTED from /Users/MacHome/Documents/clients/Elisa/WaygroupMigration/Waygroup/android/WaygroupNew/app/src/main/AndroidManifest.xml
uses-sdk
ADDED from /Users/MacHome/Documents/clients/Elisa/WaygroupMigration/Waygroup/android/WaygroupNew/app/src/main/AndroidManifest.xml:7:5-9:41
MERGED from [com.android.support:appcompat-v7:22.2.1] /Users/MacHome/Documents/clients/Elisa/WaygroupMigration/Waygroup/android/WaygroupNew/app/build/intermediates/exploded-aar/com.android.support/appcompat-v7/22.2.1/AndroidManifest.xml:20:5-43
MERGED from [com.android.support:support-v4:23.0.0] /Users/MacHome/Documents/clients/Elisa/WaygroupMigration/Waygroup/android/WaygroupNew/app/build/intermediates/exploded-aar/com.android.support/support-v4/23.0.0/AndroidManifest.xml:20:5-43
MERGED from [com.android.support:design:22.2.1] /Users/MacHome/Documents/clients/Elisa/WaygroupMigration/Waygroup/android/WaygroupNew/app/build/intermediates/exploded-aar/com.android.support/design/22.2.1/AndroidManifest.xml:20:5-43
MERGED from [com.android.support:appcompat-v7:22.2.1] /Users/MacHome/Documents/clients/Elisa/WaygroupMigration/Waygroup/android/WaygroupNew/app/build/intermediates/exploded-aar/com.android.support/appcompat-v7/22.2.1/AndroidManifest.xml:20:5-43
MERGED from [com.android.support:support-v4:23.0.0] /Users/MacHome/Documents/clients/Elisa/WaygroupMigration/Waygroup/android/WaygroupNew/app/build/intermediates/exploded-aar/com.android.support/support-v4/23.0.0/AndroidManifest.xml:20:5-43
MERGED from [com.android.support:support-v4:23.0.0] /Users/MacHome/Documents/clients/Elisa/WaygroupMigration/Waygroup/android/WaygroupNew/app/build/intermediates/exploded-aar/com.android.support/support-v4/23.0.0/AndroidManifest.xml:20:5-43
MERGED from [me.leolin:ShortcutBadger:1.1.6] /Users/MacHome/Documents/clients/Elisa/WaygroupMigration/Waygroup/android/WaygroupNew/app/build/intermediates/exploded-aar/me.leolin/ShortcutBadger/1.1.6/AndroidManifest.xml:7:5-9:41
MERGED from [com.google.android.gms:play-services-appindexing:9.0.0] /Users/MacHome/Documents/clients/Elisa/WaygroupMigration/Waygroup/android/WaygroupNew/app/build/intermediates/exploded-aar/com.google.android.gms/play-services-appindexing/9.0.0/AndroidManifest.xml:18:5-42
MERGED from [com.google.android.gms:play-services-base:9.0.0] /Users/MacHome/Documents/clients/Elisa/WaygroupMigration/Waygroup/android/WaygroupNew/app/build/intermediates/exploded-aar/com.google.android.gms/play-services-base/9.0.0/AndroidManifest.xml:18:5-42
MERGED from [com.google.android.gms:play-services-basement:9.0.0] /Users/MacHome/Documents/clients/Elisa/WaygroupMigration/Waygroup/android/WaygroupNew/app/build/intermediates/exploded-aar/com.google.android.gms/play-services-basement/9.0.0/AndroidManifest.xml:18:5-42
MERGED from [com.android.support:support-v4:23.0.0] /Users/MacHome/Documents/clients/Elisa/WaygroupMigration/Waygroup/android/WaygroupNew/app/build/intermediates/exploded-aar/com.android.support/support-v4/23.0.0/AndroidManifest.xml:20:5-43
MERGED from [com.google.firebase:firebase-common:9.0.0] /Users/MacHome/Documents/clients/Elisa/WaygroupMigration/Waygroup/android/WaygroupNew/app/build/intermediates/exploded-aar/com.google.firebase/firebase-common/9.0.0/AndroidManifest.xml:4:5-43
MERGED from [com.google.android.gms:play-services-basement:9.0.0] /Users/MacHome/Documents/clients/Elisa/WaygroupMigration/Waygroup/android/WaygroupNew/app/build/intermediates/exploded-aar/com.google.android.gms/play-services-basement/9.0.0/AndroidManifest.xml:18:5-42
MERGED from [com.android.support:support-v4:23.0.0] /Users/MacHome/Documents/clients/Elisa/WaygroupMigration/Waygroup/android/WaygroupNew/app/build/intermediates/exploded-aar/com.android.support/support-v4/23.0.0/AndroidManifest.xml:20:5-43
MERGED from [com.google.android.gms:play-services-tasks:9.0.0] /Users/MacHome/Documents/clients/Elisa/WaygroupMigration/Waygroup/android/WaygroupNew/app/build/intermediates/exploded-aar/com.google.android.gms/play-services-tasks/9.0.0/AndroidManifest.xml:4:5-43
MERGED from [com.google.android.gms:play-services-basement:9.0.0] /Users/MacHome/Documents/clients/Elisa/WaygroupMigration/Waygroup/android/WaygroupNew/app/build/intermediates/exploded-aar/com.google.android.gms/play-services-basement/9.0.0/AndroidManifest.xml:18:5-42
MERGED from [com.android.support:support-v4:23.0.0] /Users/MacHome/Documents/clients/Elisa/WaygroupMigration/Waygroup/android/WaygroupNew/app/build/intermediates/exploded-aar/com.android.support/support-v4/23.0.0/AndroidManifest.xml:20:5-43
MERGED from [com.google.android.gms:play-services-tasks:9.0.0] /Users/MacHome/Documents/clients/Elisa/WaygroupMigration/Waygroup/android/WaygroupNew/app/build/intermediates/exploded-aar/com.google.android.gms/play-services-tasks/9.0.0/AndroidManifest.xml:4:5-43
MERGED from [com.google.android.gms:play-services-basement:9.0.0] /Users/MacHome/Documents/clients/Elisa/WaygroupMigration/Waygroup/android/WaygroupNew/app/build/intermediates/exploded-aar/com.google.android.gms/play-services-basement/9.0.0/AndroidManifest.xml:18:5-42
MERGED from [com.android.support:support-v4:23.0.0] /Users/MacHome/Documents/clients/Elisa/WaygroupMigration/Waygroup/android/WaygroupNew/app/build/intermediates/exploded-aar/com.android.support/support-v4/23.0.0/AndroidManifest.xml:20:5-43
MERGED from [com.google.android.gms:play-services-basement:9.0.0] /Users/MacHome/Documents/clients/Elisa/WaygroupMigration/Waygroup/android/WaygroupNew/app/build/intermediates/exploded-aar/com.google.android.gms/play-services-basement/9.0.0/AndroidManifest.xml:18:5-42
MERGED from [com.android.support:support-v4:23.0.0] /Users/MacHome/Documents/clients/Elisa/WaygroupMigration/Waygroup/android/WaygroupNew/app/build/intermediates/exploded-aar/com.android.support/support-v4/23.0.0/AndroidManifest.xml:20:5-43
MERGED from [com.google.firebase:firebase-common:9.0.0] /Users/MacHome/Documents/clients/Elisa/WaygroupMigration/Waygroup/android/WaygroupNew/app/build/intermediates/exploded-aar/com.google.firebase/firebase-common/9.0.0/AndroidManifest.xml:4:5-43
MERGED from [com.google.android.gms:play-services-basement:9.0.0] /Users/MacHome/Documents/clients/Elisa/WaygroupMigration/Waygroup/android/WaygroupNew/app/build/intermediates/exploded-aar/com.google.android.gms/play-services-basement/9.0.0/AndroidManifest.xml:18:5-42
MERGED from [com.android.support:support-v4:23.0.0] /Users/MacHome/Documents/clients/Elisa/WaygroupMigration/Waygroup/android/WaygroupNew/app/build/intermediates/exploded-aar/com.android.support/support-v4/23.0.0/AndroidManifest.xml:20:5-43
MERGED from [com.google.android.gms:play-services-tasks:9.0.0] /Users/MacHome/Documents/clients/Elisa/WaygroupMigration/Waygroup/android/WaygroupNew/app/build/intermediates/exploded-aar/com.google.android.gms/play-services-tasks/9.0.0/AndroidManifest.xml:4:5-43
MERGED from [com.google.android.gms:play-services-basement:9.0.0] /Users/MacHome/Documents/clients/Elisa/WaygroupMigration/Waygroup/android/WaygroupNew/app/build/intermediates/exploded-aar/com.google.android.gms/play-services-basement/9.0.0/AndroidManifest.xml:18:5-42
MERGED from [com.android.support:support-v4:23.0.0] /Users/MacHome/Documents/clients/Elisa/WaygroupMigration/Waygroup/android/WaygroupNew/app/build/intermediates/exploded-aar/com.android.support/support-v4/23.0.0/AndroidManifest.xml:20:5-43
MERGED from [com.google.android.gms:play-services-tasks:9.0.0] /Users/MacHome/Documents/clients/Elisa/WaygroupMigration/Waygroup/android/WaygroupNew/app/build/intermediates/exploded-aar/com.google.android.gms/play-services-tasks/9.0.0/AndroidManifest.xml:4:5-43
MERGED from [com.google.android.gms:play-services-basement:9.0.0] /Users/MacHome/Documents/clients/Elisa/WaygroupMigration/Waygroup/android/WaygroupNew/app/build/intermediates/exploded-aar/com.google.android.gms/play-services-basement/9.0.0/AndroidManifest.xml:18:5-42
MERGED from [com.android.support:support-v4:23.0.0] /Users/MacHome/Documents/clients/Elisa/WaygroupMigration/Waygroup/android/WaygroupNew/app/build/intermediates/exploded-aar/com.android.support/support-v4/23.0.0/AndroidManifest.xml:20:5-43
MERGED from [com.google.firebase:firebase-core:9.0.0] /Users/MacHome/Documents/clients/Elisa/WaygroupMigration/Waygroup/android/WaygroupNew/app/build/intermediates/exploded-aar/com.google.firebase/firebase-core/9.0.0/AndroidManifest.xml:4:5-42
MERGED from [com.google.firebase:firebase-analytics:9.0.0] /Users/MacHome/Documents/clients/Elisa/WaygroupMigration/Waygroup/android/WaygroupNew/app/build/intermediates/exploded-aar/com.google.firebase/firebase-analytics/9.0.0/AndroidManifest.xml:18:5-42
MERGED from [com.google.android.gms:play-services-basement:9.0.0] /Users/MacHome/Documents/clients/Elisa/WaygroupMigration/Waygroup/android/WaygroupNew/app/build/intermediates/exploded-aar/com.google.android.gms/play-services-basement/9.0.0/AndroidManifest.xml:18:5-42
MERGED from [com.android.support:support-v4:23.0.0] /Users/MacHome/Documents/clients/Elisa/WaygroupMigration/Waygroup/android/WaygroupNew/app/build/intermediates/exploded-aar/com.android.support/support-v4/23.0.0/AndroidManifest.xml:20:5-43
MERGED from [com.google.firebase:firebase-common:9.0.0] /Users/MacHome/Documents/clients/Elisa/WaygroupMigration/Waygroup/android/WaygroupNew/app/build/intermediates/exploded-aar/com.google.firebase/firebase-common/9.0.0/AndroidManifest.xml:4:5-43
MERGED from [com.google.android.gms:play-services-basement:9.0.0] /Users/MacHome/Documents/clients/Elisa/WaygroupMigration/Waygroup/android/WaygroupNew/app/build/intermediates/exploded-aar/com.google.android.gms/play-services-basement/9.0.0/AndroidManifest.xml:18:5-42
MERGED from [com.android.support:support-v4:23.0.0] /Users/MacHome/Documents/clients/Elisa/WaygroupMigration/Waygroup/android/WaygroupNew/app/build/intermediates/exploded-aar/com.android.support/support-v4/23.0.0/AndroidManifest.xml:20:5-43
MERGED from [com.google.android.gms:play-services-tasks:9.0.0] /Users/MacHome/Documents/clients/Elisa/WaygroupMigration/Waygroup/android/WaygroupNew/app/build/intermediates/exploded-aar/com.google.android.gms/play-services-tasks/9.0.0/AndroidManifest.xml:4:5-43
MERGED from [com.google.android.gms:play-services-basement:9.0.0] /Users/MacHome/Documents/clients/Elisa/WaygroupMigration/Waygroup/android/WaygroupNew/app/build/intermediates/exploded-aar/com.google.android.gms/play-services-basement/9.0.0/AndroidManifest.xml:18:5-42
MERGED from [com.android.support:support-v4:23.0.0] /Users/MacHome/Documents/clients/Elisa/WaygroupMigration/Waygroup/android/WaygroupNew/app/build/intermediates/exploded-aar/com.android.support/support-v4/23.0.0/AndroidManifest.xml:20:5-43
MERGED from [com.google.firebase:firebase-analytics-impl:9.0.0] /Users/MacHome/Documents/clients/Elisa/WaygroupMigration/Waygroup/android/WaygroupNew/app/build/intermediates/exploded-aar/com.google.firebase/firebase-analytics-impl/9.0.0/AndroidManifest.xml:18:5-42
MERGED from [com.google.android.gms:play-services-base:9.0.0] /Users/MacHome/Documents/clients/Elisa/WaygroupMigration/Waygroup/android/WaygroupNew/app/build/intermediates/exploded-aar/com.google.android.gms/play-services-base/9.0.0/AndroidManifest.xml:18:5-42
MERGED from [com.google.android.gms:play-services-basement:9.0.0] /Users/MacHome/Documents/clients/Elisa/WaygroupMigration/Waygroup/android/WaygroupNew/app/build/intermediates/exploded-aar/com.google.android.gms/play-services-basement/9.0.0/AndroidManifest.xml:18:5-42
MERGED from [com.android.support:support-v4:23.0.0] /Users/MacHome/Documents/clients/Elisa/WaygroupMigration/Waygroup/android/WaygroupNew/app/build/intermediates/exploded-aar/com.android.support/support-v4/23.0.0/AndroidManifest.xml:20:5-43
MERGED from [com.google.firebase:firebase-common:9.0.0] /Users/MacHome/Documents/clients/Elisa/WaygroupMigration/Waygroup/android/WaygroupNew/app/build/intermediates/exploded-aar/com.google.firebase/firebase-common/9.0.0/AndroidManifest.xml:4:5-43
MERGED from [com.google.android.gms:play-services-basement:9.0.0] /Users/MacHome/Documents/clients/Elisa/WaygroupMigration/Waygroup/android/WaygroupNew/app/build/intermediates/exploded-aar/com.google.android.gms/play-services-basement/9.0.0/AndroidManifest.xml:18:5-42
MERGED from [com.android.support:support-v4:23.0.0] /Users/MacHome/Documents/clients/Elisa/WaygroupMigration/Waygroup/android/WaygroupNew/app/build/intermediates/exploded-aar/com.android.support/support-v4/23.0.0/AndroidManifest.xml:20:5-43
MERGED from [com.google.android.gms:play-services-tasks:9.0.0] /Users/MacHome/Documents/clients/Elisa/WaygroupMigration/Waygroup/android/WaygroupNew/app/build/intermediates/exploded-aar/com.google.android.gms/play-services-tasks/9.0.0/AndroidManifest.xml:4:5-43
MERGED from [com.google.android.gms:play-services-basement:9.0.0] /Users/MacHome/Documents/clients/Elisa/WaygroupMigration/Waygroup/android/WaygroupNew/app/build/intermediates/exploded-aar/com.google.android.gms/play-services-basement/9.0.0/AndroidManifest.xml:18:5-42
MERGED from [com.android.support:support-v4:23.0.0] /Users/MacHome/Documents/clients/Elisa/WaygroupMigration/Waygroup/android/WaygroupNew/app/build/intermediates/exploded-aar/com.android.support/support-v4/23.0.0/AndroidManifest.xml:20:5-43
MERGED from [com.google.android.gms:play-services-tasks:9.0.0] /Users/MacHome/Documents/clients/Elisa/WaygroupMigration/Waygroup/android/WaygroupNew/app/build/intermediates/exploded-aar/com.google.android.gms/play-services-tasks/9.0.0/AndroidManifest.xml:4:5-43
MERGED from [com.google.android.gms:play-services-basement:9.0.0] /Users/MacHome/Documents/clients/Elisa/WaygroupMigration/Waygroup/android/WaygroupNew/app/build/intermediates/exploded-aar/com.google.android.gms/play-services-basement/9.0.0/AndroidManifest.xml:18:5-42
MERGED from [com.android.support:support-v4:23.0.0] /Users/MacHome/Documents/clients/Elisa/WaygroupMigration/Waygroup/android/WaygroupNew/app/build/intermediates/exploded-aar/com.android.support/support-v4/23.0.0/AndroidManifest.xml:20:5-43
MERGED from [com.google.android.gms:play-services-basement:9.0.0] /Users/MacHome/Documents/clients/Elisa/WaygroupMigration/Waygroup/android/WaygroupNew/app/build/intermediates/exploded-aar/com.google.android.gms/play-services-basement/9.0.0/AndroidManifest.xml:18:5-42
MERGED from [com.android.support:support-v4:23.0.0] /Users/MacHome/Documents/clients/Elisa/WaygroupMigration/Waygroup/android/WaygroupNew/app/build/intermediates/exploded-aar/com.android.support/support-v4/23.0.0/AndroidManifest.xml:20:5-43
MERGED from [com.google.firebase:firebase-iid:9.0.0] /Users/MacHome/Documents/clients/Elisa/WaygroupMigration/Waygroup/android/WaygroupNew/app/build/intermediates/exploded-aar/com.google.firebase/firebase-iid/9.0.0/AndroidManifest.xml:18:5-42
MERGED from [com.google.android.gms:play-services-basement:9.0.0] /Users/MacHome/Documents/clients/Elisa/WaygroupMigration/Waygroup/android/WaygroupNew/app/build/intermediates/exploded-aar/com.google.android.gms/play-services-basement/9.0.0/AndroidManifest.xml:18:5-42
MERGED from [com.android.support:support-v4:23.0.0] /Users/MacHome/Documents/clients/Elisa/WaygroupMigration/Waygroup/android/WaygroupNew/app/build/intermediates/exploded-aar/com.android.support/support-v4/23.0.0/AndroidManifest.xml:20:5-43
MERGED from [com.google.firebase:firebase-common:9.0.0] /Users/MacHome/Documents/clients/Elisa/WaygroupMigration/Waygroup/android/WaygroupNew/app/build/intermediates/exploded-aar/com.google.firebase/firebase-common/9.0.0/AndroidManifest.xml:4:5-43
MERGED from [com.google.android.gms:play-services-basement:9.0.0] /Users/MacHome/Documents/clients/Elisa/WaygroupMigration/Waygroup/android/WaygroupNew/app/build/intermediates/exploded-aar/com.google.android.gms/play-services-basement/9.0.0/AndroidManifest.xml:18:5-42
MERGED from [com.android.support:support-v4:23.0.0] /Users/MacHome/Documents/clients/Elisa/WaygroupMigration/Waygroup/android/WaygroupNew/app/build/intermediates/exploded-aar/com.android.support/support-v4/23.0.0/AndroidManifest.xml:20:5-43
MERGED from [com.google.android.gms:play-services-tasks:9.0.0] /Users/MacHome/Documents/clients/Elisa/WaygroupMigration/Waygroup/android/WaygroupNew/app/build/intermediates/exploded-aar/com.google.android.gms/play-services-tasks/9.0.0/AndroidManifest.xml:4:5-43
MERGED from [com.google.android.gms:play-services-basement:9.0.0] /Users/MacHome/Documents/clients/Elisa/WaygroupMigration/Waygroup/android/WaygroupNew/app/build/intermediates/exploded-aar/com.google.android.gms/play-services-basement/9.0.0/AndroidManifest.xml:18:5-42
MERGED from [com.android.support:support-v4:23.0.0] /Users/MacHome/Documents/clients/Elisa/WaygroupMigration/Waygroup/android/WaygroupNew/app/build/intermediates/exploded-aar/com.android.support/support-v4/23.0.0/AndroidManifest.xml:20:5-43
MERGED from [com.google.firebase:firebase-common:9.0.0] /Users/MacHome/Documents/clients/Elisa/WaygroupMigration/Waygroup/android/WaygroupNew/app/build/intermediates/exploded-aar/com.google.firebase/firebase-common/9.0.0/AndroidManifest.xml:4:5-43
MERGED from [com.google.android.gms:play-services-basement:9.0.0] /Users/MacHome/Documents/clients/Elisa/WaygroupMigration/Waygroup/android/WaygroupNew/app/build/intermediates/exploded-aar/com.google.android.gms/play-services-basement/9.0.0/AndroidManifest.xml:18:5-42
MERGED from [com.android.support:support-v4:23.0.0] /Users/MacHome/Documents/clients/Elisa/WaygroupMigration/Waygroup/android/WaygroupNew/app/build/intermediates/exploded-aar/com.android.support/support-v4/23.0.0/AndroidManifest.xml:20:5-43
MERGED from [com.google.android.gms:play-services-tasks:9.0.0] /Users/MacHome/Documents/clients/Elisa/WaygroupMigration/Waygroup/android/WaygroupNew/app/build/intermediates/exploded-aar/com.google.android.gms/play-services-tasks/9.0.0/AndroidManifest.xml:4:5-43
MERGED from [com.google.android.gms:play-services-basement:9.0.0] /Users/MacHome/Documents/clients/Elisa/WaygroupMigration/Waygroup/android/WaygroupNew/app/build/intermediates/exploded-aar/com.google.android.gms/play-services-basement/9.0.0/AndroidManifest.xml:18:5-42
MERGED from [com.android.support:support-v4:23.0.0] /Users/MacHome/Documents/clients/Elisa/WaygroupMigration/Waygroup/android/WaygroupNew/app/build/intermediates/exploded-aar/com.android.support/support-v4/23.0.0/AndroidManifest.xml:20:5-43
	android:targetSdkVersion
		ADDED from /Users/MacHome/Documents/clients/Elisa/WaygroupMigration/Waygroup/android/WaygroupNew/app/src/main/AndroidManifest.xml:9:9-38
		INJECTED from /Users/MacHome/Documents/clients/Elisa/WaygroupMigration/Waygroup/android/WaygroupNew/app/src/main/AndroidManifest.xml
		INJECTED from /Users/MacHome/Documents/clients/Elisa/WaygroupMigration/Waygroup/android/WaygroupNew/app/src/main/AndroidManifest.xml
	android:minSdkVersion
		ADDED from /Users/MacHome/Documents/clients/Elisa/WaygroupMigration/Waygroup/android/WaygroupNew/app/src/main/AndroidManifest.xml:8:9-34
		INJECTED from /Users/MacHome/Documents/clients/Elisa/WaygroupMigration/Waygroup/android/WaygroupNew/app/src/main/AndroidManifest.xml
		INJECTED from /Users/MacHome/Documents/clients/Elisa/WaygroupMigration/Waygroup/android/WaygroupNew/app/src/main/AndroidManifest.xml
uses-permission#android.permission.GET_TASKS
ADDED from /Users/MacHome/Documents/clients/Elisa/WaygroupMigration/Waygroup/android/WaygroupNew/app/src/main/AndroidManifest.xml:11:5-68
	android:name
		ADDED from /Users/MacHome/Documents/clients/Elisa/WaygroupMigration/Waygroup/android/WaygroupNew/app/src/main/AndroidManifest.xml:11:22-65
uses-permission#android.permission.ACCESS_COARSE_LOCATION
ADDED from /Users/MacHome/Documents/clients/Elisa/WaygroupMigration/Waygroup/android/WaygroupNew/app/src/main/AndroidManifest.xml:12:5-81
	android:name
		ADDED from /Users/MacHome/Documents/clients/Elisa/WaygroupMigration/Waygroup/android/WaygroupNew/app/src/main/AndroidManifest.xml:12:22-78
uses-permission#android.permission.ACCESS_LOCATION_EXTRA_COMMANDS
ADDED from /Users/MacHome/Documents/clients/Elisa/WaygroupMigration/Waygroup/android/WaygroupNew/app/src/main/AndroidManifest.xml:13:5-89
	android:name
		ADDED from /Users/MacHome/Documents/clients/Elisa/WaygroupMigration/Waygroup/android/WaygroupNew/app/src/main/AndroidManifest.xml:13:22-86
uses-permission#android.permission.INTERNET
ADDED from /Users/MacHome/Documents/clients/Elisa/WaygroupMigration/Waygroup/android/WaygroupNew/app/src/main/AndroidManifest.xml:14:5-15:23
MERGED from [com.google.firebase:firebase-analytics:9.0.0] /Users/MacHome/Documents/clients/Elisa/WaygroupMigration/Waygroup/android/WaygroupNew/app/build/intermediates/exploded-aar/com.google.firebase/firebase-analytics/9.0.0/AndroidManifest.xml:21:5-67
MERGED from [com.google.firebase:firebase-analytics-impl:9.0.0] /Users/MacHome/Documents/clients/Elisa/WaygroupMigration/Waygroup/android/WaygroupNew/app/build/intermediates/exploded-aar/com.google.firebase/firebase-analytics-impl/9.0.0/AndroidManifest.xml:21:5-67
MERGED from [com.google.firebase:firebase-iid:9.0.0] /Users/MacHome/Documents/clients/Elisa/WaygroupMigration/Waygroup/android/WaygroupNew/app/build/intermediates/exploded-aar/com.google.firebase/firebase-iid/9.0.0/AndroidManifest.xml:21:5-67
	android:name
		ADDED from /Users/MacHome/Documents/clients/Elisa/WaygroupMigration/Waygroup/android/WaygroupNew/app/src/main/AndroidManifest.xml:14:22-64
uses-permission#android.permission.ACCESS_WIFI_STATE
ADDED from /Users/MacHome/Documents/clients/Elisa/WaygroupMigration/Waygroup/android/WaygroupNew/app/src/main/AndroidManifest.xml:16:5-76
	android:name
		ADDED from /Users/MacHome/Documents/clients/Elisa/WaygroupMigration/Waygroup/android/WaygroupNew/app/src/main/AndroidManifest.xml:16:22-73
uses-permission#android.permission.ACCESS_NETWORK_STATE
ADDED from /Users/MacHome/Documents/clients/Elisa/WaygroupMigration/Waygroup/android/WaygroupNew/app/src/main/AndroidManifest.xml:17:5-79
MERGED from [com.google.firebase:firebase-analytics:9.0.0] /Users/MacHome/Documents/clients/Elisa/WaygroupMigration/Waygroup/android/WaygroupNew/app/build/intermediates/exploded-aar/com.google.firebase/firebase-analytics/9.0.0/AndroidManifest.xml:22:5-79
MERGED from [com.google.firebase:firebase-analytics-impl:9.0.0] /Users/MacHome/Documents/clients/Elisa/WaygroupMigration/Waygroup/android/WaygroupNew/app/build/intermediates/exploded-aar/com.google.firebase/firebase-analytics-impl/9.0.0/AndroidManifest.xml:22:5-79
MERGED from [com.google.firebase:firebase-iid:9.0.0] /Users/MacHome/Documents/clients/Elisa/WaygroupMigration/Waygroup/android/WaygroupNew/app/build/intermediates/exploded-aar/com.google.firebase/firebase-iid/9.0.0/AndroidManifest.xml:20:5-79
	android:name
		ADDED from /Users/MacHome/Documents/clients/Elisa/WaygroupMigration/Waygroup/android/WaygroupNew/app/src/main/AndroidManifest.xml:17:22-76
uses-permission#android.permission.CAMERA
ADDED from /Users/MacHome/Documents/clients/Elisa/WaygroupMigration/Waygroup/android/WaygroupNew/app/src/main/AndroidManifest.xml:18:5-19:23
	android:name
		ADDED from /Users/MacHome/Documents/clients/Elisa/WaygroupMigration/Waygroup/android/WaygroupNew/app/src/main/AndroidManifest.xml:18:22-62
uses-permission#com.android.launcher.permission.INSTALL_SHORTCUT
ADDED from /Users/MacHome/Documents/clients/Elisa/WaygroupMigration/Waygroup/android/WaygroupNew/app/src/main/AndroidManifest.xml:20:5-88
	android:name
		ADDED from /Users/MacHome/Documents/clients/Elisa/WaygroupMigration/Waygroup/android/WaygroupNew/app/src/main/AndroidManifest.xml:20:22-85
uses-permission#com.android.launcher.permission.UNINSTALL_SHORTCUT
ADDED from /Users/MacHome/Documents/clients/Elisa/WaygroupMigration/Waygroup/android/WaygroupNew/app/src/main/AndroidManifest.xml:21:5-90
	android:name
		ADDED from /Users/MacHome/Documents/clients/Elisa/WaygroupMigration/Waygroup/android/WaygroupNew/app/src/main/AndroidManifest.xml:21:22-87
uses-feature#android.hardware.location
ADDED from /Users/MacHome/Documents/clients/Elisa/WaygroupMigration/Waygroup/android/WaygroupNew/app/src/main/AndroidManifest.xml:23:5-25:35
	android:required
		ADDED from /Users/MacHome/Documents/clients/Elisa/WaygroupMigration/Waygroup/android/WaygroupNew/app/src/main/AndroidManifest.xml:25:9-32
	android:name
		ADDED from /Users/MacHome/Documents/clients/Elisa/WaygroupMigration/Waygroup/android/WaygroupNew/app/src/main/AndroidManifest.xml:24:9-49
uses-feature#android.hardware.location.gps
ADDED from /Users/MacHome/Documents/clients/Elisa/WaygroupMigration/Waygroup/android/WaygroupNew/app/src/main/AndroidManifest.xml:26:5-28:36
	android:required
		ADDED from /Users/MacHome/Documents/clients/Elisa/WaygroupMigration/Waygroup/android/WaygroupNew/app/src/main/AndroidManifest.xml:28:9-33
	android:name
		ADDED from /Users/MacHome/Documents/clients/Elisa/WaygroupMigration/Waygroup/android/WaygroupNew/app/src/main/AndroidManifest.xml:27:9-53
uses-permission#android.permission.WRITE_EXTERNAL_STORAGE
ADDED from /Users/MacHome/Documents/clients/Elisa/WaygroupMigration/Waygroup/android/WaygroupNew/app/src/main/AndroidManifest.xml:30:5-81
	android:name
		ADDED from /Users/MacHome/Documents/clients/Elisa/WaygroupMigration/Waygroup/android/WaygroupNew/app/src/main/AndroidManifest.xml:30:22-78
uses-permission#android.permission.ACCESS_FINE_LOCATION
ADDED from /Users/MacHome/Documents/clients/Elisa/WaygroupMigration/Waygroup/android/WaygroupNew/app/src/main/AndroidManifest.xml:31:5-79
	android:name
		ADDED from /Users/MacHome/Documents/clients/Elisa/WaygroupMigration/Waygroup/android/WaygroupNew/app/src/main/AndroidManifest.xml:31:22-76
uses-permission#android.permission.WAKE_LOCK
ADDED from /Users/MacHome/Documents/clients/Elisa/WaygroupMigration/Waygroup/android/WaygroupNew/app/src/main/AndroidManifest.xml:32:5-68
MERGED from [com.google.firebase:firebase-analytics:9.0.0] /Users/MacHome/Documents/clients/Elisa/WaygroupMigration/Waygroup/android/WaygroupNew/app/build/intermediates/exploded-aar/com.google.firebase/firebase-analytics/9.0.0/AndroidManifest.xml:24:5-67
MERGED from [com.google.firebase:firebase-analytics-impl:9.0.0] /Users/MacHome/Documents/clients/Elisa/WaygroupMigration/Waygroup/android/WaygroupNew/app/build/intermediates/exploded-aar/com.google.firebase/firebase-analytics-impl/9.0.0/AndroidManifest.xml:24:5-67
MERGED from [com.google.firebase:firebase-iid:9.0.0] /Users/MacHome/Documents/clients/Elisa/WaygroupMigration/Waygroup/android/WaygroupNew/app/build/intermediates/exploded-aar/com.google.firebase/firebase-iid/9.0.0/AndroidManifest.xml:22:5-68
	android:name
		ADDED from /Users/MacHome/Documents/clients/Elisa/WaygroupMigration/Waygroup/android/WaygroupNew/app/src/main/AndroidManifest.xml:32:22-65
uses-permission#android.permission.RECEIVE_BOOT_COMPLETED
ADDED from /Users/MacHome/Documents/clients/Elisa/WaygroupMigration/Waygroup/android/WaygroupNew/app/src/main/AndroidManifest.xml:33:5-81
	android:name
		ADDED from /Users/MacHome/Documents/clients/Elisa/WaygroupMigration/Waygroup/android/WaygroupNew/app/src/main/AndroidManifest.xml:33:22-78
uses-permission#android.permission.VIBRATE
ADDED from /Users/MacHome/Documents/clients/Elisa/WaygroupMigration/Waygroup/android/WaygroupNew/app/src/main/AndroidManifest.xml:34:5-66
	android:name
		ADDED from /Users/MacHome/Documents/clients/Elisa/WaygroupMigration/Waygroup/android/WaygroupNew/app/src/main/AndroidManifest.xml:34:22-63
uses-permission#android.permission.GET_ACCOUNTS
ADDED from /Users/MacHome/Documents/clients/Elisa/WaygroupMigration/Waygroup/android/WaygroupNew/app/src/main/AndroidManifest.xml:35:5-71
	android:name
		ADDED from /Users/MacHome/Documents/clients/Elisa/WaygroupMigration/Waygroup/android/WaygroupNew/app/src/main/AndroidManifest.xml:35:22-68
uses-permission#com.google.android.c2dm.permission.RECEIVE
ADDED from /Users/MacHome/Documents/clients/Elisa/WaygroupMigration/Waygroup/android/WaygroupNew/app/src/main/AndroidManifest.xml:36:5-82
MERGED from [com.google.firebase:firebase-iid:9.0.0] /Users/MacHome/Documents/clients/Elisa/WaygroupMigration/Waygroup/android/WaygroupNew/app/build/intermediates/exploded-aar/com.google.firebase/firebase-iid/9.0.0/AndroidManifest.xml:23:5-82
	android:name
		ADDED from /Users/MacHome/Documents/clients/Elisa/WaygroupMigration/Waygroup/android/WaygroupNew/app/src/main/AndroidManifest.xml:36:22-79
uses-permission#android.permission.READ_PHONE_STATE
ADDED from /Users/MacHome/Documents/clients/Elisa/WaygroupMigration/Waygroup/android/WaygroupNew/app/src/main/AndroidManifest.xml:37:5-75
	android:name
		ADDED from /Users/MacHome/Documents/clients/Elisa/WaygroupMigration/Waygroup/android/WaygroupNew/app/src/main/AndroidManifest.xml:37:22-72
uses-permission#com.android.launcher.permission.READ_SETTINGS
ADDED from /Users/MacHome/Documents/clients/Elisa/WaygroupMigration/Waygroup/android/WaygroupNew/app/src/main/AndroidManifest.xml:38:5-85
	android:name
		ADDED from /Users/MacHome/Documents/clients/Elisa/WaygroupMigration/Waygroup/android/WaygroupNew/app/src/main/AndroidManifest.xml:38:22-82
uses-permission#com.android.launcher.permission.WRITE_SETTINGS
ADDED from /Users/MacHome/Documents/clients/Elisa/WaygroupMigration/Waygroup/android/WaygroupNew/app/src/main/AndroidManifest.xml:39:5-86
	android:name
		ADDED from /Users/MacHome/Documents/clients/Elisa/WaygroupMigration/Waygroup/android/WaygroupNew/app/src/main/AndroidManifest.xml:39:22-83
uses-permission#com.sec.android.provider.badge.permission.READ
ADDED from /Users/MacHome/Documents/clients/Elisa/WaygroupMigration/Waygroup/android/WaygroupNew/app/src/main/AndroidManifest.xml:47:5-86
MERGED from [me.leolin:ShortcutBadger:1.1.6] /Users/MacHome/Documents/clients/Elisa/WaygroupMigration/Waygroup/android/WaygroupNew/app/build/intermediates/exploded-aar/me.leolin/ShortcutBadger/1.1.6/AndroidManifest.xml:19:5-86
	android:name
		ADDED from /Users/MacHome/Documents/clients/Elisa/WaygroupMigration/Waygroup/android/WaygroupNew/app/src/main/AndroidManifest.xml:47:22-83
uses-permission#com.sec.android.provider.badge.permission.WRITE
ADDED from /Users/MacHome/Documents/clients/Elisa/WaygroupMigration/Waygroup/android/WaygroupNew/app/src/main/AndroidManifest.xml:48:5-87
MERGED from [me.leolin:ShortcutBadger:1.1.6] /Users/MacHome/Documents/clients/Elisa/WaygroupMigration/Waygroup/android/WaygroupNew/app/build/intermediates/exploded-aar/me.leolin/ShortcutBadger/1.1.6/AndroidManifest.xml:20:5-87
	android:name
		ADDED from /Users/MacHome/Documents/clients/Elisa/WaygroupMigration/Waygroup/android/WaygroupNew/app/src/main/AndroidManifest.xml:48:22-84
uses-permission#com.htc.launcher.permission.READ_SETTINGS
ADDED from /Users/MacHome/Documents/clients/Elisa/WaygroupMigration/Waygroup/android/WaygroupNew/app/src/main/AndroidManifest.xml:51:5-81
MERGED from [me.leolin:ShortcutBadger:1.1.6] /Users/MacHome/Documents/clients/Elisa/WaygroupMigration/Waygroup/android/WaygroupNew/app/build/intermediates/exploded-aar/me.leolin/ShortcutBadger/1.1.6/AndroidManifest.xml:23:5-81
	android:name
		ADDED from /Users/MacHome/Documents/clients/Elisa/WaygroupMigration/Waygroup/android/WaygroupNew/app/src/main/AndroidManifest.xml:51:22-78
uses-permission#com.htc.launcher.permission.UPDATE_SHORTCUT
ADDED from /Users/MacHome/Documents/clients/Elisa/WaygroupMigration/Waygroup/android/WaygroupNew/app/src/main/AndroidManifest.xml:52:5-83
MERGED from [me.leolin:ShortcutBadger:1.1.6] /Users/MacHome/Documents/clients/Elisa/WaygroupMigration/Waygroup/android/WaygroupNew/app/build/intermediates/exploded-aar/me.leolin/ShortcutBadger/1.1.6/AndroidManifest.xml:24:5-83
	android:name
		ADDED from /Users/MacHome/Documents/clients/Elisa/WaygroupMigration/Waygroup/android/WaygroupNew/app/src/main/AndroidManifest.xml:52:22-80
uses-permission#com.sonyericsson.home.permission.BROADCAST_BADGE
ADDED from /Users/MacHome/Documents/clients/Elisa/WaygroupMigration/Waygroup/android/WaygroupNew/app/src/main/AndroidManifest.xml:55:5-88
MERGED from [me.leolin:ShortcutBadger:1.1.6] /Users/MacHome/Documents/clients/Elisa/WaygroupMigration/Waygroup/android/WaygroupNew/app/build/intermediates/exploded-aar/me.leolin/ShortcutBadger/1.1.6/AndroidManifest.xml:27:5-88
	android:name
		ADDED from /Users/MacHome/Documents/clients/Elisa/WaygroupMigration/Waygroup/android/WaygroupNew/app/src/main/AndroidManifest.xml:55:22-85
uses-permission#com.anddoes.launcher.permission.UPDATE_COUNT
ADDED from /Users/MacHome/Documents/clients/Elisa/WaygroupMigration/Waygroup/android/WaygroupNew/app/src/main/AndroidManifest.xml:58:5-84
MERGED from [me.leolin:ShortcutBadger:1.1.6] /Users/MacHome/Documents/clients/Elisa/WaygroupMigration/Waygroup/android/WaygroupNew/app/build/intermediates/exploded-aar/me.leolin/ShortcutBadger/1.1.6/AndroidManifest.xml:31:5-84
	android:name
		ADDED from /Users/MacHome/Documents/clients/Elisa/WaygroupMigration/Waygroup/android/WaygroupNew/app/src/main/AndroidManifest.xml:58:22-81
permission#com.tucan.waygroup.permission.C2D_MESSAGE
ADDED from /Users/MacHome/Documents/clients/Elisa/WaygroupMigration/Waygroup/android/WaygroupNew/app/src/main/AndroidManifest.xml:64:5-66:47
MERGED from [com.google.firebase:firebase-iid:9.0.0] /Users/MacHome/Documents/clients/Elisa/WaygroupMigration/Waygroup/android/WaygroupNew/app/build/intermediates/exploded-aar/com.google.firebase/firebase-iid/9.0.0/AndroidManifest.xml:25:5-26:47
	android:protectionLevel
		ADDED from /Users/MacHome/Documents/clients/Elisa/WaygroupMigration/Waygroup/android/WaygroupNew/app/src/main/AndroidManifest.xml:66:9-44
	android:name
		ADDED from /Users/MacHome/Documents/clients/Elisa/WaygroupMigration/Waygroup/android/WaygroupNew/app/src/main/AndroidManifest.xml:65:9-65
uses-permission#com.tucan.waygroup.permission.C2D_MESSAGE
ADDED from /Users/MacHome/Documents/clients/Elisa/WaygroupMigration/Waygroup/android/WaygroupNew/app/src/main/AndroidManifest.xml:68:5-81
MERGED from [com.google.firebase:firebase-iid:9.0.0] /Users/MacHome/Documents/clients/Elisa/WaygroupMigration/Waygroup/android/WaygroupNew/app/build/intermediates/exploded-aar/com.google.firebase/firebase-iid/9.0.0/AndroidManifest.xml:28:5-79
	android:name
		ADDED from /Users/MacHome/Documents/clients/Elisa/WaygroupMigration/Waygroup/android/WaygroupNew/app/src/main/AndroidManifest.xml:68:22-78
uses-feature#android.hardware.camera
ADDED from /Users/MacHome/Documents/clients/Elisa/WaygroupMigration/Waygroup/android/WaygroupNew/app/src/main/AndroidManifest.xml:70:5-73:20
	android:required
		ADDED from /Users/MacHome/Documents/clients/Elisa/WaygroupMigration/Waygroup/android/WaygroupNew/app/src/main/AndroidManifest.xml:72:9-33
	android:name
		ADDED from /Users/MacHome/Documents/clients/Elisa/WaygroupMigration/Waygroup/android/WaygroupNew/app/src/main/AndroidManifest.xml:71:9-47
application
ADDED from /Users/MacHome/Documents/clients/Elisa/WaygroupMigration/Waygroup/android/WaygroupNew/app/src/main/AndroidManifest.xml:75:5-183:19
MERGED from [com.android.support:appcompat-v7:22.2.1] /Users/MacHome/Documents/clients/Elisa/WaygroupMigration/Waygroup/android/WaygroupNew/app/build/intermediates/exploded-aar/com.android.support/appcompat-v7/22.2.1/AndroidManifest.xml:22:5-20
MERGED from [com.android.support:support-v4:23.0.0] /Users/MacHome/Documents/clients/Elisa/WaygroupMigration/Waygroup/android/WaygroupNew/app/build/intermediates/exploded-aar/com.android.support/support-v4/23.0.0/AndroidManifest.xml:22:5-20
MERGED from [com.android.support:design:22.2.1] /Users/MacHome/Documents/clients/Elisa/WaygroupMigration/Waygroup/android/WaygroupNew/app/build/intermediates/exploded-aar/com.android.support/design/22.2.1/AndroidManifest.xml:22:5-20
MERGED from [com.android.support:appcompat-v7:22.2.1] /Users/MacHome/Documents/clients/Elisa/WaygroupMigration/Waygroup/android/WaygroupNew/app/build/intermediates/exploded-aar/com.android.support/appcompat-v7/22.2.1/AndroidManifest.xml:22:5-20
MERGED from [com.android.support:support-v4:23.0.0] /Users/MacHome/Documents/clients/Elisa/WaygroupMigration/Waygroup/android/WaygroupNew/app/build/intermediates/exploded-aar/com.android.support/support-v4/23.0.0/AndroidManifest.xml:22:5-20
MERGED from [com.android.support:support-v4:23.0.0] /Users/MacHome/Documents/clients/Elisa/WaygroupMigration/Waygroup/android/WaygroupNew/app/build/intermediates/exploded-aar/com.android.support/support-v4/23.0.0/AndroidManifest.xml:22:5-20
MERGED from [com.google.android.gms:play-services-appindexing:9.0.0] /Users/MacHome/Documents/clients/Elisa/WaygroupMigration/Waygroup/android/WaygroupNew/app/build/intermediates/exploded-aar/com.google.android.gms/play-services-appindexing/9.0.0/AndroidManifest.xml:19:5-20
MERGED from [com.google.android.gms:play-services-base:9.0.0] /Users/MacHome/Documents/clients/Elisa/WaygroupMigration/Waygroup/android/WaygroupNew/app/build/intermediates/exploded-aar/com.google.android.gms/play-services-base/9.0.0/AndroidManifest.xml:19:5-23:19
MERGED from [com.google.android.gms:play-services-basement:9.0.0] /Users/MacHome/Documents/clients/Elisa/WaygroupMigration/Waygroup/android/WaygroupNew/app/build/intermediates/exploded-aar/com.google.android.gms/play-services-basement/9.0.0/AndroidManifest.xml:20:5-24:19
MERGED from [com.android.support:support-v4:23.0.0] /Users/MacHome/Documents/clients/Elisa/WaygroupMigration/Waygroup/android/WaygroupNew/app/build/intermediates/exploded-aar/com.android.support/support-v4/23.0.0/AndroidManifest.xml:22:5-20
MERGED from [com.google.firebase:firebase-common:9.0.0] /Users/MacHome/Documents/clients/Elisa/WaygroupMigration/Waygroup/android/WaygroupNew/app/build/intermediates/exploded-aar/com.google.firebase/firebase-common/9.0.0/AndroidManifest.xml:5:5-12:19
MERGED from [com.google.android.gms:play-services-basement:9.0.0] /Users/MacHome/Documents/clients/Elisa/WaygroupMigration/Waygroup/android/WaygroupNew/app/build/intermediates/exploded-aar/com.google.android.gms/play-services-basement/9.0.0/AndroidManifest.xml:20:5-24:19
MERGED from [com.android.support:support-v4:23.0.0] /Users/MacHome/Documents/clients/Elisa/WaygroupMigration/Waygroup/android/WaygroupNew/app/build/intermediates/exploded-aar/com.android.support/support-v4/23.0.0/AndroidManifest.xml:22:5-20
MERGED from [com.google.android.gms:play-services-tasks:9.0.0] /Users/MacHome/Documents/clients/Elisa/WaygroupMigration/Waygroup/android/WaygroupNew/app/build/intermediates/exploded-aar/com.google.android.gms/play-services-tasks/9.0.0/AndroidManifest.xml:5:5-20
MERGED from [com.google.android.gms:play-services-basement:9.0.0] /Users/MacHome/Documents/clients/Elisa/WaygroupMigration/Waygroup/android/WaygroupNew/app/build/intermediates/exploded-aar/com.google.android.gms/play-services-basement/9.0.0/AndroidManifest.xml:20:5-24:19
MERGED from [com.android.support:support-v4:23.0.0] /Users/MacHome/Documents/clients/Elisa/WaygroupMigration/Waygroup/android/WaygroupNew/app/build/intermediates/exploded-aar/com.android.support/support-v4/23.0.0/AndroidManifest.xml:22:5-20
MERGED from [com.google.android.gms:play-services-tasks:9.0.0] /Users/MacHome/Documents/clients/Elisa/WaygroupMigration/Waygroup/android/WaygroupNew/app/build/intermediates/exploded-aar/com.google.android.gms/play-services-tasks/9.0.0/AndroidManifest.xml:5:5-20
MERGED from [com.google.android.gms:play-services-basement:9.0.0] /Users/MacHome/Documents/clients/Elisa/WaygroupMigration/Waygroup/android/WaygroupNew/app/build/intermediates/exploded-aar/com.google.android.gms/play-services-basement/9.0.0/AndroidManifest.xml:20:5-24:19
MERGED from [com.android.support:support-v4:23.0.0] /Users/MacHome/Documents/clients/Elisa/WaygroupMigration/Waygroup/android/WaygroupNew/app/build/intermediates/exploded-aar/com.android.support/support-v4/23.0.0/AndroidManifest.xml:22:5-20
MERGED from [com.google.android.gms:play-services-basement:9.0.0] /Users/MacHome/Documents/clients/Elisa/WaygroupMigration/Waygroup/android/WaygroupNew/app/build/intermediates/exploded-aar/com.google.android.gms/play-services-basement/9.0.0/AndroidManifest.xml:20:5-24:19
MERGED from [com.android.support:support-v4:23.0.0] /Users/MacHome/Documents/clients/Elisa/WaygroupMigration/Waygroup/android/WaygroupNew/app/build/intermediates/exploded-aar/com.android.support/support-v4/23.0.0/AndroidManifest.xml:22:5-20
MERGED from [com.google.firebase:firebase-common:9.0.0] /Users/MacHome/Documents/clients/Elisa/WaygroupMigration/Waygroup/android/WaygroupNew/app/build/intermediates/exploded-aar/com.google.firebase/firebase-common/9.0.0/AndroidManifest.xml:5:5-12:19
MERGED from [com.google.android.gms:play-services-basement:9.0.0] /Users/MacHome/Documents/clients/Elisa/WaygroupMigration/Waygroup/android/WaygroupNew/app/build/intermediates/exploded-aar/com.google.android.gms/play-services-basement/9.0.0/AndroidManifest.xml:20:5-24:19
MERGED from [com.android.support:support-v4:23.0.0] /Users/MacHome/Documents/clients/Elisa/WaygroupMigration/Waygroup/android/WaygroupNew/app/build/intermediates/exploded-aar/com.android.support/support-v4/23.0.0/AndroidManifest.xml:22:5-20
MERGED from [com.google.android.gms:play-services-tasks:9.0.0] /Users/MacHome/Documents/clients/Elisa/WaygroupMigration/Waygroup/android/WaygroupNew/app/build/intermediates/exploded-aar/com.google.android.gms/play-services-tasks/9.0.0/AndroidManifest.xml:5:5-20
MERGED from [com.google.android.gms:play-services-basement:9.0.0] /Users/MacHome/Documents/clients/Elisa/WaygroupMigration/Waygroup/android/WaygroupNew/app/build/intermediates/exploded-aar/com.google.android.gms/play-services-basement/9.0.0/AndroidManifest.xml:20:5-24:19
MERGED from [com.android.support:support-v4:23.0.0] /Users/MacHome/Documents/clients/Elisa/WaygroupMigration/Waygroup/android/WaygroupNew/app/build/intermediates/exploded-aar/com.android.support/support-v4/23.0.0/AndroidManifest.xml:22:5-20
MERGED from [com.google.android.gms:play-services-tasks:9.0.0] /Users/MacHome/Documents/clients/Elisa/WaygroupMigration/Waygroup/android/WaygroupNew/app/build/intermediates/exploded-aar/com.google.android.gms/play-services-tasks/9.0.0/AndroidManifest.xml:5:5-20
MERGED from [com.google.android.gms:play-services-basement:9.0.0] /Users/MacHome/Documents/clients/Elisa/WaygroupMigration/Waygroup/android/WaygroupNew/app/build/intermediates/exploded-aar/com.google.android.gms/play-services-basement/9.0.0/AndroidManifest.xml:20:5-24:19
MERGED from [com.android.support:support-v4:23.0.0] /Users/MacHome/Documents/clients/Elisa/WaygroupMigration/Waygroup/android/WaygroupNew/app/build/intermediates/exploded-aar/com.android.support/support-v4/23.0.0/AndroidManifest.xml:22:5-20
MERGED from [com.google.firebase:firebase-core:9.0.0] /Users/MacHome/Documents/clients/Elisa/WaygroupMigration/Waygroup/android/WaygroupNew/app/build/intermediates/exploded-aar/com.google.firebase/firebase-core/9.0.0/AndroidManifest.xml:5:5-20
MERGED from [com.google.firebase:firebase-analytics:9.0.0] /Users/MacHome/Documents/clients/Elisa/WaygroupMigration/Waygroup/android/WaygroupNew/app/build/intermediates/exploded-aar/com.google.firebase/firebase-analytics/9.0.0/AndroidManifest.xml:26:5-41:19
MERGED from [com.google.android.gms:play-services-basement:9.0.0] /Users/MacHome/Documents/clients/Elisa/WaygroupMigration/Waygroup/android/WaygroupNew/app/build/intermediates/exploded-aar/com.google.android.gms/play-services-basement/9.0.0/AndroidManifest.xml:20:5-24:19
MERGED from [com.android.support:support-v4:23.0.0] /Users/MacHome/Documents/clients/Elisa/WaygroupMigration/Waygroup/android/WaygroupNew/app/build/intermediates/exploded-aar/com.android.support/support-v4/23.0.0/AndroidManifest.xml:22:5-20
MERGED from [com.google.firebase:firebase-common:9.0.0] /Users/MacHome/Documents/clients/Elisa/WaygroupMigration/Waygroup/android/WaygroupNew/app/build/intermediates/exploded-aar/com.google.firebase/firebase-common/9.0.0/AndroidManifest.xml:5:5-12:19
MERGED from [com.google.android.gms:play-services-basement:9.0.0] /Users/MacHome/Documents/clients/Elisa/WaygroupMigration/Waygroup/android/WaygroupNew/app/build/intermediates/exploded-aar/com.google.android.gms/play-services-basement/9.0.0/AndroidManifest.xml:20:5-24:19
MERGED from [com.android.support:support-v4:23.0.0] /Users/MacHome/Documents/clients/Elisa/WaygroupMigration/Waygroup/android/WaygroupNew/app/build/intermediates/exploded-aar/com.android.support/support-v4/23.0.0/AndroidManifest.xml:22:5-20
MERGED from [com.google.android.gms:play-services-tasks:9.0.0] /Users/MacHome/Documents/clients/Elisa/WaygroupMigration/Waygroup/android/WaygroupNew/app/build/intermediates/exploded-aar/com.google.android.gms/play-services-tasks/9.0.0/AndroidManifest.xml:5:5-20
MERGED from [com.google.android.gms:play-services-basement:9.0.0] /Users/MacHome/Documents/clients/Elisa/WaygroupMigration/Waygroup/android/WaygroupNew/app/build/intermediates/exploded-aar/com.google.android.gms/play-services-basement/9.0.0/AndroidManifest.xml:20:5-24:19
MERGED from [com.android.support:support-v4:23.0.0] /Users/MacHome/Documents/clients/Elisa/WaygroupMigration/Waygroup/android/WaygroupNew/app/build/intermediates/exploded-aar/com.android.support/support-v4/23.0.0/AndroidManifest.xml:22:5-20
MERGED from [com.google.firebase:firebase-analytics-impl:9.0.0] /Users/MacHome/Documents/clients/Elisa/WaygroupMigration/Waygroup/android/WaygroupNew/app/build/intermediates/exploded-aar/com.google.firebase/firebase-analytics-impl/9.0.0/AndroidManifest.xml:26:5-41:19
MERGED from [com.google.android.gms:play-services-base:9.0.0] /Users/MacHome/Documents/clients/Elisa/WaygroupMigration/Waygroup/android/WaygroupNew/app/build/intermediates/exploded-aar/com.google.android.gms/play-services-base/9.0.0/AndroidManifest.xml:19:5-23:19
MERGED from [com.google.android.gms:play-services-basement:9.0.0] /Users/MacHome/Documents/clients/Elisa/WaygroupMigration/Waygroup/android/WaygroupNew/app/build/intermediates/exploded-aar/com.google.android.gms/play-services-basement/9.0.0/AndroidManifest.xml:20:5-24:19
MERGED from [com.android.support:support-v4:23.0.0] /Users/MacHome/Documents/clients/Elisa/WaygroupMigration/Waygroup/android/WaygroupNew/app/build/intermediates/exploded-aar/com.android.support/support-v4/23.0.0/AndroidManifest.xml:22:5-20
MERGED from [com.google.firebase:firebase-common:9.0.0] /Users/MacHome/Documents/clients/Elisa/WaygroupMigration/Waygroup/android/WaygroupNew/app/build/intermediates/exploded-aar/com.google.firebase/firebase-common/9.0.0/AndroidManifest.xml:5:5-12:19
MERGED from [com.google.android.gms:play-services-basement:9.0.0] /Users/MacHome/Documents/clients/Elisa/WaygroupMigration/Waygroup/android/WaygroupNew/app/build/intermediates/exploded-aar/com.google.android.gms/play-services-basement/9.0.0/AndroidManifest.xml:20:5-24:19
MERGED from [com.android.support:support-v4:23.0.0] /Users/MacHome/Documents/clients/Elisa/WaygroupMigration/Waygroup/android/WaygroupNew/app/build/intermediates/exploded-aar/com.android.support/support-v4/23.0.0/AndroidManifest.xml:22:5-20
MERGED from [com.google.android.gms:play-services-tasks:9.0.0] /Users/MacHome/Documents/clients/Elisa/WaygroupMigration/Waygroup/android/WaygroupNew/app/build/intermediates/exploded-aar/com.google.android.gms/play-services-tasks/9.0.0/AndroidManifest.xml:5:5-20
MERGED from [com.google.android.gms:play-services-basement:9.0.0] /Users/MacHome/Documents/clients/Elisa/WaygroupMigration/Waygroup/android/WaygroupNew/app/build/intermediates/exploded-aar/com.google.android.gms/play-services-basement/9.0.0/AndroidManifest.xml:20:5-24:19
MERGED from [com.android.support:support-v4:23.0.0] /Users/MacHome/Documents/clients/Elisa/WaygroupMigration/Waygroup/android/WaygroupNew/app/build/intermediates/exploded-aar/com.android.support/support-v4/23.0.0/AndroidManifest.xml:22:5-20
MERGED from [com.google.android.gms:play-services-tasks:9.0.0] /Users/MacHome/Documents/clients/Elisa/WaygroupMigration/Waygroup/android/WaygroupNew/app/build/intermediates/exploded-aar/com.google.android.gms/play-services-tasks/9.0.0/AndroidManifest.xml:5:5-20
MERGED from [com.google.android.gms:play-services-basement:9.0.0] /Users/MacHome/Documents/clients/Elisa/WaygroupMigration/Waygroup/android/WaygroupNew/app/build/intermediates/exploded-aar/com.google.android.gms/play-services-basement/9.0.0/AndroidManifest.xml:20:5-24:19
MERGED from [com.android.support:support-v4:23.0.0] /Users/MacHome/Documents/clients/Elisa/WaygroupMigration/Waygroup/android/WaygroupNew/app/build/intermediates/exploded-aar/com.android.support/support-v4/23.0.0/AndroidManifest.xml:22:5-20
MERGED from [com.google.android.gms:play-services-basement:9.0.0] /Users/MacHome/Documents/clients/Elisa/WaygroupMigration/Waygroup/android/WaygroupNew/app/build/intermediates/exploded-aar/com.google.android.gms/play-services-basement/9.0.0/AndroidManifest.xml:20:5-24:19
MERGED from [com.android.support:support-v4:23.0.0] /Users/MacHome/Documents/clients/Elisa/WaygroupMigration/Waygroup/android/WaygroupNew/app/build/intermediates/exploded-aar/com.android.support/support-v4/23.0.0/AndroidManifest.xml:22:5-20
MERGED from [com.google.firebase:firebase-iid:9.0.0] /Users/MacHome/Documents/clients/Elisa/WaygroupMigration/Waygroup/android/WaygroupNew/app/build/intermediates/exploded-aar/com.google.firebase/firebase-iid/9.0.0/AndroidManifest.xml:30:5-59:19
MERGED from [com.google.android.gms:play-services-basement:9.0.0] /Users/MacHome/Documents/clients/Elisa/WaygroupMigration/Waygroup/android/WaygroupNew/app/build/intermediates/exploded-aar/com.google.android.gms/play-services-basement/9.0.0/AndroidManifest.xml:20:5-24:19
MERGED from [com.android.support:support-v4:23.0.0] /Users/MacHome/Documents/clients/Elisa/WaygroupMigration/Waygroup/android/WaygroupNew/app/build/intermediates/exploded-aar/com.android.support/support-v4/23.0.0/AndroidManifest.xml:22:5-20
MERGED from [com.google.firebase:firebase-common:9.0.0] /Users/MacHome/Documents/clients/Elisa/WaygroupMigration/Waygroup/android/WaygroupNew/app/build/intermediates/exploded-aar/com.google.firebase/firebase-common/9.0.0/AndroidManifest.xml:5:5-12:19
MERGED from [com.google.android.gms:play-services-basement:9.0.0] /Users/MacHome/Documents/clients/Elisa/WaygroupMigration/Waygroup/android/WaygroupNew/app/build/intermediates/exploded-aar/com.google.android.gms/play-services-basement/9.0.0/AndroidManifest.xml:20:5-24:19
MERGED from [com.android.support:support-v4:23.0.0] /Users/MacHome/Documents/clients/Elisa/WaygroupMigration/Waygroup/android/WaygroupNew/app/build/intermediates/exploded-aar/com.android.support/support-v4/23.0.0/AndroidManifest.xml:22:5-20
MERGED from [com.google.android.gms:play-services-tasks:9.0.0] /Users/MacHome/Documents/clients/Elisa/WaygroupMigration/Waygroup/android/WaygroupNew/app/build/intermediates/exploded-aar/com.google.android.gms/play-services-tasks/9.0.0/AndroidManifest.xml:5:5-20
MERGED from [com.google.android.gms:play-services-basement:9.0.0] /Users/MacHome/Documents/clients/Elisa/WaygroupMigration/Waygroup/android/WaygroupNew/app/build/intermediates/exploded-aar/com.google.android.gms/play-services-basement/9.0.0/AndroidManifest.xml:20:5-24:19
MERGED from [com.android.support:support-v4:23.0.0] /Users/MacHome/Documents/clients/Elisa/WaygroupMigration/Waygroup/android/WaygroupNew/app/build/intermediates/exploded-aar/com.android.support/support-v4/23.0.0/AndroidManifest.xml:22:5-20
MERGED from [com.google.firebase:firebase-common:9.0.0] /Users/MacHome/Documents/clients/Elisa/WaygroupMigration/Waygroup/android/WaygroupNew/app/build/intermediates/exploded-aar/com.google.firebase/firebase-common/9.0.0/AndroidManifest.xml:5:5-12:19
MERGED from [com.google.android.gms:play-services-basement:9.0.0] /Users/MacHome/Documents/clients/Elisa/WaygroupMigration/Waygroup/android/WaygroupNew/app/build/intermediates/exploded-aar/com.google.android.gms/play-services-basement/9.0.0/AndroidManifest.xml:20:5-24:19
MERGED from [com.android.support:support-v4:23.0.0] /Users/MacHome/Documents/clients/Elisa/WaygroupMigration/Waygroup/android/WaygroupNew/app/build/intermediates/exploded-aar/com.android.support/support-v4/23.0.0/AndroidManifest.xml:22:5-20
MERGED from [com.google.android.gms:play-services-tasks:9.0.0] /Users/MacHome/Documents/clients/Elisa/WaygroupMigration/Waygroup/android/WaygroupNew/app/build/intermediates/exploded-aar/com.google.android.gms/play-services-tasks/9.0.0/AndroidManifest.xml:5:5-20
MERGED from [com.google.android.gms:play-services-basement:9.0.0] /Users/MacHome/Documents/clients/Elisa/WaygroupMigration/Waygroup/android/WaygroupNew/app/build/intermediates/exploded-aar/com.google.android.gms/play-services-basement/9.0.0/AndroidManifest.xml:20:5-24:19
MERGED from [com.android.support:support-v4:23.0.0] /Users/MacHome/Documents/clients/Elisa/WaygroupMigration/Waygroup/android/WaygroupNew/app/build/intermediates/exploded-aar/com.android.support/support-v4/23.0.0/AndroidManifest.xml:22:5-20
	android:label
		ADDED from /Users/MacHome/Documents/clients/Elisa/WaygroupMigration/Waygroup/android/WaygroupNew/app/src/main/AndroidManifest.xml:80:9-41
	android:allowBackup
		ADDED from /Users/MacHome/Documents/clients/Elisa/WaygroupMigration/Waygroup/android/WaygroupNew/app/src/main/AndroidManifest.xml:77:9-35
	android:icon
		ADDED from /Users/MacHome/Documents/clients/Elisa/WaygroupMigration/Waygroup/android/WaygroupNew/app/src/main/AndroidManifest.xml:79:9-45
	android:theme
		ADDED from /Users/MacHome/Documents/clients/Elisa/WaygroupMigration/Waygroup/android/WaygroupNew/app/src/main/AndroidManifest.xml:82:9-40
	android:hardwareAccelerated
		ADDED from /Users/MacHome/Documents/clients/Elisa/WaygroupMigration/Waygroup/android/WaygroupNew/app/src/main/AndroidManifest.xml:78:9-44
	android:largeHeap
		ADDED from /Users/MacHome/Documents/clients/Elisa/WaygroupMigration/Waygroup/android/WaygroupNew/app/src/main/AndroidManifest.xml:81:9-33
	android:name
		ADDED from /Users/MacHome/Documents/clients/Elisa/WaygroupMigration/Waygroup/android/WaygroupNew/app/src/main/AndroidManifest.xml:76:9-33
activity#com.tucan.waygroup.SplashActivity
ADDED from /Users/MacHome/Documents/clients/Elisa/WaygroupMigration/Waygroup/android/WaygroupNew/app/src/main/AndroidManifest.xml:83:9-92:20
	android:screenOrientation
		ADDED from /Users/MacHome/Documents/clients/Elisa/WaygroupMigration/Waygroup/android/WaygroupNew/app/src/main/AndroidManifest.xml:86:13-49
	android:label
		ADDED from /Users/MacHome/Documents/clients/Elisa/WaygroupMigration/Waygroup/android/WaygroupNew/app/src/main/AndroidManifest.xml:85:13-45
	android:name
		ADDED from /Users/MacHome/Documents/clients/Elisa/WaygroupMigration/Waygroup/android/WaygroupNew/app/src/main/AndroidManifest.xml:84:13-43
intent-filter#android.intent.action.MAIN+android.intent.category.LAUNCHER
ADDED from /Users/MacHome/Documents/clients/Elisa/WaygroupMigration/Waygroup/android/WaygroupNew/app/src/main/AndroidManifest.xml:87:13-91:29
action#android.intent.action.MAIN
ADDED from /Users/MacHome/Documents/clients/Elisa/WaygroupMigration/Waygroup/android/WaygroupNew/app/src/main/AndroidManifest.xml:88:17-69
	android:name
		ADDED from /Users/MacHome/Documents/clients/Elisa/WaygroupMigration/Waygroup/android/WaygroupNew/app/src/main/AndroidManifest.xml:88:25-66
category#android.intent.category.LAUNCHER
ADDED from /Users/MacHome/Documents/clients/Elisa/WaygroupMigration/Waygroup/android/WaygroupNew/app/src/main/AndroidManifest.xml:90:17-77
	android:name
		ADDED from /Users/MacHome/Documents/clients/Elisa/WaygroupMigration/Waygroup/android/WaygroupNew/app/src/main/AndroidManifest.xml:90:27-74
activity#com.tucan.waygroup.UserSelectActivity
ADDED from /Users/MacHome/Documents/clients/Elisa/WaygroupMigration/Waygroup/android/WaygroupNew/app/src/main/AndroidManifest.xml:93:9-97:20
	android:screenOrientation
		ADDED from /Users/MacHome/Documents/clients/Elisa/WaygroupMigration/Waygroup/android/WaygroupNew/app/src/main/AndroidManifest.xml:96:13-49
	android:label
		ADDED from /Users/MacHome/Documents/clients/Elisa/WaygroupMigration/Waygroup/android/WaygroupNew/app/src/main/AndroidManifest.xml:95:13-63
	android:name
		ADDED from /Users/MacHome/Documents/clients/Elisa/WaygroupMigration/Waygroup/android/WaygroupNew/app/src/main/AndroidManifest.xml:94:13-47
activity#com.tucan.waygroup.LoginUser1Activity
ADDED from /Users/MacHome/Documents/clients/Elisa/WaygroupMigration/Waygroup/android/WaygroupNew/app/src/main/AndroidManifest.xml:98:9-102:20
	android:screenOrientation
		ADDED from /Users/MacHome/Documents/clients/Elisa/WaygroupMigration/Waygroup/android/WaygroupNew/app/src/main/AndroidManifest.xml:101:13-49
	android:label
		ADDED from /Users/MacHome/Documents/clients/Elisa/WaygroupMigration/Waygroup/android/WaygroupNew/app/src/main/AndroidManifest.xml:100:13-63
	android:name
		ADDED from /Users/MacHome/Documents/clients/Elisa/WaygroupMigration/Waygroup/android/WaygroupNew/app/src/main/AndroidManifest.xml:99:13-47
activity#com.tucan.waygroup.ReportAndSeeUser2Activity
ADDED from /Users/MacHome/Documents/clients/Elisa/WaygroupMigration/Waygroup/android/WaygroupNew/app/src/main/AndroidManifest.xml:103:9-107:20
	android:screenOrientation
		ADDED from /Users/MacHome/Documents/clients/Elisa/WaygroupMigration/Waygroup/android/WaygroupNew/app/src/main/AndroidManifest.xml:106:13-49
	android:label
		ADDED from /Users/MacHome/Documents/clients/Elisa/WaygroupMigration/Waygroup/android/WaygroupNew/app/src/main/AndroidManifest.xml:105:13-63
	android:name
		ADDED from /Users/MacHome/Documents/clients/Elisa/WaygroupMigration/Waygroup/android/WaygroupNew/app/src/main/AndroidManifest.xml:104:13-54
activity#com.tucan.waygroup.ReportAndSeeActivity
ADDED from /Users/MacHome/Documents/clients/Elisa/WaygroupMigration/Waygroup/android/WaygroupNew/app/src/main/AndroidManifest.xml:108:9-112:20
	android:screenOrientation
		ADDED from /Users/MacHome/Documents/clients/Elisa/WaygroupMigration/Waygroup/android/WaygroupNew/app/src/main/AndroidManifest.xml:111:13-49
	android:label
		ADDED from /Users/MacHome/Documents/clients/Elisa/WaygroupMigration/Waygroup/android/WaygroupNew/app/src/main/AndroidManifest.xml:110:13-66
	android:name
		ADDED from /Users/MacHome/Documents/clients/Elisa/WaygroupMigration/Waygroup/android/WaygroupNew/app/src/main/AndroidManifest.xml:109:13-49
activity#com.tucan.waygroup.SelectImageActivity
ADDED from /Users/MacHome/Documents/clients/Elisa/WaygroupMigration/Waygroup/android/WaygroupNew/app/src/main/AndroidManifest.xml:113:9-117:20
	android:screenOrientation
		ADDED from /Users/MacHome/Documents/clients/Elisa/WaygroupMigration/Waygroup/android/WaygroupNew/app/src/main/AndroidManifest.xml:116:13-49
	android:label
		ADDED from /Users/MacHome/Documents/clients/Elisa/WaygroupMigration/Waygroup/android/WaygroupNew/app/src/main/AndroidManifest.xml:115:13-64
	android:name
		ADDED from /Users/MacHome/Documents/clients/Elisa/WaygroupMigration/Waygroup/android/WaygroupNew/app/src/main/AndroidManifest.xml:114:13-48
activity#com.tucan.waygroup.ReportActivity
ADDED from /Users/MacHome/Documents/clients/Elisa/WaygroupMigration/Waygroup/android/WaygroupNew/app/src/main/AndroidManifest.xml:118:9-122:20
	android:screenOrientation
		ADDED from /Users/MacHome/Documents/clients/Elisa/WaygroupMigration/Waygroup/android/WaygroupNew/app/src/main/AndroidManifest.xml:121:13-49
	android:label
		ADDED from /Users/MacHome/Documents/clients/Elisa/WaygroupMigration/Waygroup/android/WaygroupNew/app/src/main/AndroidManifest.xml:120:13-58
	android:name
		ADDED from /Users/MacHome/Documents/clients/Elisa/WaygroupMigration/Waygroup/android/WaygroupNew/app/src/main/AndroidManifest.xml:119:13-43
activity#com.tucan.waygroup.WebPageActivity
ADDED from /Users/MacHome/Documents/clients/Elisa/WaygroupMigration/Waygroup/android/WaygroupNew/app/src/main/AndroidManifest.xml:123:9-127:20
	android:screenOrientation
		ADDED from /Users/MacHome/Documents/clients/Elisa/WaygroupMigration/Waygroup/android/WaygroupNew/app/src/main/AndroidManifest.xml:126:13-49
	android:label
		ADDED from /Users/MacHome/Documents/clients/Elisa/WaygroupMigration/Waygroup/android/WaygroupNew/app/src/main/AndroidManifest.xml:125:13-60
	android:name
		ADDED from /Users/MacHome/Documents/clients/Elisa/WaygroupMigration/Waygroup/android/WaygroupNew/app/src/main/AndroidManifest.xml:124:13-44
activity#com.tucan.waygroup.LocalDataActivity
ADDED from /Users/MacHome/Documents/clients/Elisa/WaygroupMigration/Waygroup/android/WaygroupNew/app/src/main/AndroidManifest.xml:128:9-132:20
	android:screenOrientation
		ADDED from /Users/MacHome/Documents/clients/Elisa/WaygroupMigration/Waygroup/android/WaygroupNew/app/src/main/AndroidManifest.xml:131:13-49
	android:label
		ADDED from /Users/MacHome/Documents/clients/Elisa/WaygroupMigration/Waygroup/android/WaygroupNew/app/src/main/AndroidManifest.xml:130:13-62
	android:name
		ADDED from /Users/MacHome/Documents/clients/Elisa/WaygroupMigration/Waygroup/android/WaygroupNew/app/src/main/AndroidManifest.xml:129:13-46
activity#com.tucan.waygroup.AlarmRecieverDialogActivity
ADDED from /Users/MacHome/Documents/clients/Elisa/WaygroupMigration/Waygroup/android/WaygroupNew/app/src/main/AndroidManifest.xml:133:9-137:20
	android:screenOrientation
		ADDED from /Users/MacHome/Documents/clients/Elisa/WaygroupMigration/Waygroup/android/WaygroupNew/app/src/main/AndroidManifest.xml:135:13-49
	android:theme
		ADDED from /Users/MacHome/Documents/clients/Elisa/WaygroupMigration/Waygroup/android/WaygroupNew/app/src/main/AndroidManifest.xml:136:13-55
	android:name
		ADDED from /Users/MacHome/Documents/clients/Elisa/WaygroupMigration/Waygroup/android/WaygroupNew/app/src/main/AndroidManifest.xml:134:13-56
activity#com.tucan.waygroup.NotificationRecieverDialogActivity
ADDED from /Users/MacHome/Documents/clients/Elisa/WaygroupMigration/Waygroup/android/WaygroupNew/app/src/main/AndroidManifest.xml:138:9-142:20
	android:screenOrientation
		ADDED from /Users/MacHome/Documents/clients/Elisa/WaygroupMigration/Waygroup/android/WaygroupNew/app/src/main/AndroidManifest.xml:140:13-49
	android:theme
		ADDED from /Users/MacHome/Documents/clients/Elisa/WaygroupMigration/Waygroup/android/WaygroupNew/app/src/main/AndroidManifest.xml:141:13-55
	android:name
		ADDED from /Users/MacHome/Documents/clients/Elisa/WaygroupMigration/Waygroup/android/WaygroupNew/app/src/main/AndroidManifest.xml:139:13-63
service#com.parse.PushService
ADDED from /Users/MacHome/Documents/clients/Elisa/WaygroupMigration/Waygroup/android/WaygroupNew/app/src/main/AndroidManifest.xml:144:9-57
	android:name
		ADDED from /Users/MacHome/Documents/clients/Elisa/WaygroupMigration/Waygroup/android/WaygroupNew/app/src/main/AndroidManifest.xml:144:18-54
receiver#com.parse.ParseBroadcastReceiver
ADDED from /Users/MacHome/Documents/clients/Elisa/WaygroupMigration/Waygroup/android/WaygroupNew/app/src/main/AndroidManifest.xml:146:9-151:20
	android:name
		ADDED from /Users/MacHome/Documents/clients/Elisa/WaygroupMigration/Waygroup/android/WaygroupNew/app/src/main/AndroidManifest.xml:146:19-66
intent-filter#android.intent.action.BOOT_COMPLETED+android.intent.action.USER_PRESENT
ADDED from /Users/MacHome/Documents/clients/Elisa/WaygroupMigration/Waygroup/android/WaygroupNew/app/src/main/AndroidManifest.xml:147:13-150:29
action#android.intent.action.BOOT_COMPLETED
ADDED from /Users/MacHome/Documents/clients/Elisa/WaygroupMigration/Waygroup/android/WaygroupNew/app/src/main/AndroidManifest.xml:148:17-79
	android:name
		ADDED from /Users/MacHome/Documents/clients/Elisa/WaygroupMigration/Waygroup/android/WaygroupNew/app/src/main/AndroidManifest.xml:148:25-76
action#android.intent.action.USER_PRESENT
ADDED from /Users/MacHome/Documents/clients/Elisa/WaygroupMigration/Waygroup/android/WaygroupNew/app/src/main/AndroidManifest.xml:149:17-77
	android:name
		ADDED from /Users/MacHome/Documents/clients/Elisa/WaygroupMigration/Waygroup/android/WaygroupNew/app/src/main/AndroidManifest.xml:149:25-74
receiver#com.tucan.waygroup.PushNotificationActivity
ADDED from /Users/MacHome/Documents/clients/Elisa/WaygroupMigration/Waygroup/android/WaygroupNew/app/src/main/AndroidManifest.xml:152:9-160:20
	android:exported
		ADDED from /Users/MacHome/Documents/clients/Elisa/WaygroupMigration/Waygroup/android/WaygroupNew/app/src/main/AndroidManifest.xml:154:13-37
	android:name
		ADDED from /Users/MacHome/Documents/clients/Elisa/WaygroupMigration/Waygroup/android/WaygroupNew/app/src/main/AndroidManifest.xml:153:13-71
intent-filter#com.parse.push.intent.DELETE+com.parse.push.intent.OPEN+com.parse.push.intent.RECEIVE
ADDED from /Users/MacHome/Documents/clients/Elisa/WaygroupMigration/Waygroup/android/WaygroupNew/app/src/main/AndroidManifest.xml:155:13-159:29
action#com.parse.push.intent.RECEIVE
ADDED from /Users/MacHome/Documents/clients/Elisa/WaygroupMigration/Waygroup/android/WaygroupNew/app/src/main/AndroidManifest.xml:156:17-72
	android:name
		ADDED from /Users/MacHome/Documents/clients/Elisa/WaygroupMigration/Waygroup/android/WaygroupNew/app/src/main/AndroidManifest.xml:156:25-69
action#com.parse.push.intent.OPEN
ADDED from /Users/MacHome/Documents/clients/Elisa/WaygroupMigration/Waygroup/android/WaygroupNew/app/src/main/AndroidManifest.xml:157:17-69
	android:name
		ADDED from /Users/MacHome/Documents/clients/Elisa/WaygroupMigration/Waygroup/android/WaygroupNew/app/src/main/AndroidManifest.xml:157:25-66
action#com.parse.push.intent.DELETE
ADDED from /Users/MacHome/Documents/clients/Elisa/WaygroupMigration/Waygroup/android/WaygroupNew/app/src/main/AndroidManifest.xml:158:17-71
	android:name
		ADDED from /Users/MacHome/Documents/clients/Elisa/WaygroupMigration/Waygroup/android/WaygroupNew/app/src/main/AndroidManifest.xml:158:25-68
receiver#com.parse.GcmBroadcastReceiver
ADDED from /Users/MacHome/Documents/clients/Elisa/WaygroupMigration/Waygroup/android/WaygroupNew/app/src/main/AndroidManifest.xml:161:9-172:20
	android:permission
		ADDED from /Users/MacHome/Documents/clients/Elisa/WaygroupMigration/Waygroup/android/WaygroupNew/app/src/main/AndroidManifest.xml:163:13-73
	android:name
		ADDED from /Users/MacHome/Documents/clients/Elisa/WaygroupMigration/Waygroup/android/WaygroupNew/app/src/main/AndroidManifest.xml:162:13-58
intent-filter#com.google.android.c2dm.intent.RECEIVE+com.google.android.c2dm.intent.REGISTRATION+com.tucan.waygroup
ADDED from /Users/MacHome/Documents/clients/Elisa/WaygroupMigration/Waygroup/android/WaygroupNew/app/src/main/AndroidManifest.xml:164:13-171:29
action#com.google.android.c2dm.intent.RECEIVE
ADDED from /Users/MacHome/Documents/clients/Elisa/WaygroupMigration/Waygroup/android/WaygroupNew/app/src/main/AndroidManifest.xml:165:17-81
	android:name
		ADDED from /Users/MacHome/Documents/clients/Elisa/WaygroupMigration/Waygroup/android/WaygroupNew/app/src/main/AndroidManifest.xml:165:25-78
action#com.google.android.c2dm.intent.REGISTRATION
ADDED from /Users/MacHome/Documents/clients/Elisa/WaygroupMigration/Waygroup/android/WaygroupNew/app/src/main/AndroidManifest.xml:166:17-86
	android:name
		ADDED from /Users/MacHome/Documents/clients/Elisa/WaygroupMigration/Waygroup/android/WaygroupNew/app/src/main/AndroidManifest.xml:166:25-83
category#com.tucan.waygroup
ADDED from /Users/MacHome/Documents/clients/Elisa/WaygroupMigration/Waygroup/android/WaygroupNew/app/src/main/AndroidManifest.xml:170:17-63
	android:name
		ADDED from /Users/MacHome/Documents/clients/Elisa/WaygroupMigration/Waygroup/android/WaygroupNew/app/src/main/AndroidManifest.xml:170:27-60
activity#com.tucan.waygroup.NotificationReceiverDialogActivity
ADDED from /Users/MacHome/Documents/clients/Elisa/WaygroupMigration/Waygroup/android/WaygroupNew/app/src/main/AndroidManifest.xml:174:9-178:20
	android:screenOrientation
		ADDED from /Users/MacHome/Documents/clients/Elisa/WaygroupMigration/Waygroup/android/WaygroupNew/app/src/main/AndroidManifest.xml:176:13-49
	android:theme
		ADDED from /Users/MacHome/Documents/clients/Elisa/WaygroupMigration/Waygroup/android/WaygroupNew/app/src/main/AndroidManifest.xml:177:13-55
	android:name
		ADDED from /Users/MacHome/Documents/clients/Elisa/WaygroupMigration/Waygroup/android/WaygroupNew/app/src/main/AndroidManifest.xml:175:13-81
meta-data#com.parse.push.gcm_sender_id
ADDED from /Users/MacHome/Documents/clients/Elisa/WaygroupMigration/Waygroup/android/WaygroupNew/app/src/main/AndroidManifest.xml:180:9-182:47
	android:name
		ADDED from /Users/MacHome/Documents/clients/Elisa/WaygroupMigration/Waygroup/android/WaygroupNew/app/src/main/AndroidManifest.xml:181:13-56
	android:value
		ADDED from /Users/MacHome/Documents/clients/Elisa/WaygroupMigration/Waygroup/android/WaygroupNew/app/src/main/AndroidManifest.xml:182:13-44
uses-permission#com.sonymobile.home.permission.PROVIDER_INSERT_BADGE
ADDED from [me.leolin:ShortcutBadger:1.1.6] /Users/MacHome/Documents/clients/Elisa/WaygroupMigration/Waygroup/android/WaygroupNew/app/build/intermediates/exploded-aar/me.leolin/ShortcutBadger/1.1.6/AndroidManifest.xml:28:5-92
	android:name
		ADDED from [me.leolin:ShortcutBadger:1.1.6] /Users/MacHome/Documents/clients/Elisa/WaygroupMigration/Waygroup/android/WaygroupNew/app/build/intermediates/exploded-aar/me.leolin/ShortcutBadger/1.1.6/AndroidManifest.xml:28:22-89
uses-permission#com.majeur.launcher.permission.UPDATE_BADGE
ADDED from [me.leolin:ShortcutBadger:1.1.6] /Users/MacHome/Documents/clients/Elisa/WaygroupMigration/Waygroup/android/WaygroupNew/app/build/intermediates/exploded-aar/me.leolin/ShortcutBadger/1.1.6/AndroidManifest.xml:34:5-83
	android:name
		ADDED from [me.leolin:ShortcutBadger:1.1.6] /Users/MacHome/Documents/clients/Elisa/WaygroupMigration/Waygroup/android/WaygroupNew/app/build/intermediates/exploded-aar/me.leolin/ShortcutBadger/1.1.6/AndroidManifest.xml:34:22-80
activity#com.google.android.gms.common.api.GoogleApiActivity
ADDED from [com.google.android.gms:play-services-base:9.0.0] /Users/MacHome/Documents/clients/Elisa/WaygroupMigration/Waygroup/android/WaygroupNew/app/build/intermediates/exploded-aar/com.google.android.gms/play-services-base/9.0.0/AndroidManifest.xml:20:9-22:45
MERGED from [com.google.android.gms:play-services-base:9.0.0] /Users/MacHome/Documents/clients/Elisa/WaygroupMigration/Waygroup/android/WaygroupNew/app/build/intermediates/exploded-aar/com.google.android.gms/play-services-base/9.0.0/AndroidManifest.xml:20:9-22:45
	android:theme
		ADDED from [com.google.android.gms:play-services-base:9.0.0] /Users/MacHome/Documents/clients/Elisa/WaygroupMigration/Waygroup/android/WaygroupNew/app/build/intermediates/exploded-aar/com.google.android.gms/play-services-base/9.0.0/AndroidManifest.xml:21:19-78
	android:exported
		ADDED from [com.google.android.gms:play-services-base:9.0.0] /Users/MacHome/Documents/clients/Elisa/WaygroupMigration/Waygroup/android/WaygroupNew/app/build/intermediates/exploded-aar/com.google.android.gms/play-services-base/9.0.0/AndroidManifest.xml:22:19-43
	android:name
		ADDED from [com.google.android.gms:play-services-base:9.0.0] /Users/MacHome/Documents/clients/Elisa/WaygroupMigration/Waygroup/android/WaygroupNew/app/build/intermediates/exploded-aar/com.google.android.gms/play-services-base/9.0.0/AndroidManifest.xml:20:19-85
meta-data#com.google.android.gms.version
ADDED from [com.google.android.gms:play-services-basement:9.0.0] /Users/MacHome/Documents/clients/Elisa/WaygroupMigration/Waygroup/android/WaygroupNew/app/build/intermediates/exploded-aar/com.google.android.gms/play-services-basement/9.0.0/AndroidManifest.xml:21:9-23:69
MERGED from [com.google.android.gms:play-services-basement:9.0.0] /Users/MacHome/Documents/clients/Elisa/WaygroupMigration/Waygroup/android/WaygroupNew/app/build/intermediates/exploded-aar/com.google.android.gms/play-services-basement/9.0.0/AndroidManifest.xml:21:9-23:69
MERGED from [com.google.android.gms:play-services-basement:9.0.0] /Users/MacHome/Documents/clients/Elisa/WaygroupMigration/Waygroup/android/WaygroupNew/app/build/intermediates/exploded-aar/com.google.android.gms/play-services-basement/9.0.0/AndroidManifest.xml:21:9-23:69
MERGED from [com.google.android.gms:play-services-basement:9.0.0] /Users/MacHome/Documents/clients/Elisa/WaygroupMigration/Waygroup/android/WaygroupNew/app/build/intermediates/exploded-aar/com.google.android.gms/play-services-basement/9.0.0/AndroidManifest.xml:21:9-23:69
MERGED from [com.google.android.gms:play-services-basement:9.0.0] /Users/MacHome/Documents/clients/Elisa/WaygroupMigration/Waygroup/android/WaygroupNew/app/build/intermediates/exploded-aar/com.google.android.gms/play-services-basement/9.0.0/AndroidManifest.xml:21:9-23:69
MERGED from [com.google.android.gms:play-services-basement:9.0.0] /Users/MacHome/Documents/clients/Elisa/WaygroupMigration/Waygroup/android/WaygroupNew/app/build/intermediates/exploded-aar/com.google.android.gms/play-services-basement/9.0.0/AndroidManifest.xml:21:9-23:69
MERGED from [com.google.android.gms:play-services-basement:9.0.0] /Users/MacHome/Documents/clients/Elisa/WaygroupMigration/Waygroup/android/WaygroupNew/app/build/intermediates/exploded-aar/com.google.android.gms/play-services-basement/9.0.0/AndroidManifest.xml:21:9-23:69
MERGED from [com.google.android.gms:play-services-basement:9.0.0] /Users/MacHome/Documents/clients/Elisa/WaygroupMigration/Waygroup/android/WaygroupNew/app/build/intermediates/exploded-aar/com.google.android.gms/play-services-basement/9.0.0/AndroidManifest.xml:21:9-23:69
MERGED from [com.google.android.gms:play-services-basement:9.0.0] /Users/MacHome/Documents/clients/Elisa/WaygroupMigration/Waygroup/android/WaygroupNew/app/build/intermediates/exploded-aar/com.google.android.gms/play-services-basement/9.0.0/AndroidManifest.xml:21:9-23:69
MERGED from [com.google.android.gms:play-services-basement:9.0.0] /Users/MacHome/Documents/clients/Elisa/WaygroupMigration/Waygroup/android/WaygroupNew/app/build/intermediates/exploded-aar/com.google.android.gms/play-services-basement/9.0.0/AndroidManifest.xml:21:9-23:69
MERGED from [com.google.android.gms:play-services-basement:9.0.0] /Users/MacHome/Documents/clients/Elisa/WaygroupMigration/Waygroup/android/WaygroupNew/app/build/intermediates/exploded-aar/com.google.android.gms/play-services-basement/9.0.0/AndroidManifest.xml:21:9-23:69
MERGED from [com.google.android.gms:play-services-basement:9.0.0] /Users/MacHome/Documents/clients/Elisa/WaygroupMigration/Waygroup/android/WaygroupNew/app/build/intermediates/exploded-aar/com.google.android.gms/play-services-basement/9.0.0/AndroidManifest.xml:21:9-23:69
MERGED from [com.google.android.gms:play-services-basement:9.0.0] /Users/MacHome/Documents/clients/Elisa/WaygroupMigration/Waygroup/android/WaygroupNew/app/build/intermediates/exploded-aar/com.google.android.gms/play-services-basement/9.0.0/AndroidManifest.xml:21:9-23:69
MERGED from [com.google.android.gms:play-services-basement:9.0.0] /Users/MacHome/Documents/clients/Elisa/WaygroupMigration/Waygroup/android/WaygroupNew/app/build/intermediates/exploded-aar/com.google.android.gms/play-services-basement/9.0.0/AndroidManifest.xml:21:9-23:69
MERGED from [com.google.android.gms:play-services-basement:9.0.0] /Users/MacHome/Documents/clients/Elisa/WaygroupMigration/Waygroup/android/WaygroupNew/app/build/intermediates/exploded-aar/com.google.android.gms/play-services-basement/9.0.0/AndroidManifest.xml:21:9-23:69
MERGED from [com.google.android.gms:play-services-basement:9.0.0] /Users/MacHome/Documents/clients/Elisa/WaygroupMigration/Waygroup/android/WaygroupNew/app/build/intermediates/exploded-aar/com.google.android.gms/play-services-basement/9.0.0/AndroidManifest.xml:21:9-23:69
MERGED from [com.google.android.gms:play-services-basement:9.0.0] /Users/MacHome/Documents/clients/Elisa/WaygroupMigration/Waygroup/android/WaygroupNew/app/build/intermediates/exploded-aar/com.google.android.gms/play-services-basement/9.0.0/AndroidManifest.xml:21:9-23:69
MERGED from [com.google.android.gms:play-services-basement:9.0.0] /Users/MacHome/Documents/clients/Elisa/WaygroupMigration/Waygroup/android/WaygroupNew/app/build/intermediates/exploded-aar/com.google.android.gms/play-services-basement/9.0.0/AndroidManifest.xml:21:9-23:69
MERGED from [com.google.android.gms:play-services-basement:9.0.0] /Users/MacHome/Documents/clients/Elisa/WaygroupMigration/Waygroup/android/WaygroupNew/app/build/intermediates/exploded-aar/com.google.android.gms/play-services-basement/9.0.0/AndroidManifest.xml:21:9-23:69
MERGED from [com.google.android.gms:play-services-basement:9.0.0] /Users/MacHome/Documents/clients/Elisa/WaygroupMigration/Waygroup/android/WaygroupNew/app/build/intermediates/exploded-aar/com.google.android.gms/play-services-basement/9.0.0/AndroidManifest.xml:21:9-23:69
MERGED from [com.google.android.gms:play-services-basement:9.0.0] /Users/MacHome/Documents/clients/Elisa/WaygroupMigration/Waygroup/android/WaygroupNew/app/build/intermediates/exploded-aar/com.google.android.gms/play-services-basement/9.0.0/AndroidManifest.xml:21:9-23:69
	android:name
		ADDED from [com.google.android.gms:play-services-basement:9.0.0] /Users/MacHome/Documents/clients/Elisa/WaygroupMigration/Waygroup/android/WaygroupNew/app/build/intermediates/exploded-aar/com.google.android.gms/play-services-basement/9.0.0/AndroidManifest.xml:22:13-58
	android:value
		ADDED from [com.google.android.gms:play-services-basement:9.0.0] /Users/MacHome/Documents/clients/Elisa/WaygroupMigration/Waygroup/android/WaygroupNew/app/build/intermediates/exploded-aar/com.google.android.gms/play-services-basement/9.0.0/AndroidManifest.xml:23:13-66
provider#com.google.firebase.provider.FirebaseInitProvider
ADDED from [com.google.firebase:firebase-common:9.0.0] /Users/MacHome/Documents/clients/Elisa/WaygroupMigration/Waygroup/android/WaygroupNew/app/build/intermediates/exploded-aar/com.google.firebase/firebase-common/9.0.0/AndroidManifest.xml:7:9-11:39
MERGED from [com.google.firebase:firebase-common:9.0.0] /Users/MacHome/Documents/clients/Elisa/WaygroupMigration/Waygroup/android/WaygroupNew/app/build/intermediates/exploded-aar/com.google.firebase/firebase-common/9.0.0/AndroidManifest.xml:7:9-11:39
MERGED from [com.google.firebase:firebase-common:9.0.0] /Users/MacHome/Documents/clients/Elisa/WaygroupMigration/Waygroup/android/WaygroupNew/app/build/intermediates/exploded-aar/com.google.firebase/firebase-common/9.0.0/AndroidManifest.xml:7:9-11:39
MERGED from [com.google.firebase:firebase-common:9.0.0] /Users/MacHome/Documents/clients/Elisa/WaygroupMigration/Waygroup/android/WaygroupNew/app/build/intermediates/exploded-aar/com.google.firebase/firebase-common/9.0.0/AndroidManifest.xml:7:9-11:39
MERGED from [com.google.firebase:firebase-common:9.0.0] /Users/MacHome/Documents/clients/Elisa/WaygroupMigration/Waygroup/android/WaygroupNew/app/build/intermediates/exploded-aar/com.google.firebase/firebase-common/9.0.0/AndroidManifest.xml:7:9-11:39
MERGED from [com.google.firebase:firebase-common:9.0.0] /Users/MacHome/Documents/clients/Elisa/WaygroupMigration/Waygroup/android/WaygroupNew/app/build/intermediates/exploded-aar/com.google.firebase/firebase-common/9.0.0/AndroidManifest.xml:7:9-11:39
	android:exported
		ADDED from [com.google.firebase:firebase-common:9.0.0] /Users/MacHome/Documents/clients/Elisa/WaygroupMigration/Waygroup/android/WaygroupNew/app/build/intermediates/exploded-aar/com.google.firebase/firebase-common/9.0.0/AndroidManifest.xml:10:13-37
	android:authorities
		ADDED from [com.google.firebase:firebase-common:9.0.0] /Users/MacHome/Documents/clients/Elisa/WaygroupMigration/Waygroup/android/WaygroupNew/app/build/intermediates/exploded-aar/com.google.firebase/firebase-common/9.0.0/AndroidManifest.xml:8:13-72
	android:initOrder
		ADDED from [com.google.firebase:firebase-common:9.0.0] /Users/MacHome/Documents/clients/Elisa/WaygroupMigration/Waygroup/android/WaygroupNew/app/build/intermediates/exploded-aar/com.google.firebase/firebase-common/9.0.0/AndroidManifest.xml:11:13-36
	android:name
		ADDED from [com.google.firebase:firebase-common:9.0.0] /Users/MacHome/Documents/clients/Elisa/WaygroupMigration/Waygroup/android/WaygroupNew/app/build/intermediates/exploded-aar/com.google.firebase/firebase-common/9.0.0/AndroidManifest.xml:9:13-58
receiver#com.google.android.gms.measurement.AppMeasurementReceiver
ADDED from [com.google.firebase:firebase-analytics:9.0.0] /Users/MacHome/Documents/clients/Elisa/WaygroupMigration/Waygroup/android/WaygroupNew/app/build/intermediates/exploded-aar/com.google.firebase/firebase-analytics/9.0.0/AndroidManifest.xml:28:7-34:18
MERGED from [com.google.firebase:firebase-analytics-impl:9.0.0] /Users/MacHome/Documents/clients/Elisa/WaygroupMigration/Waygroup/android/WaygroupNew/app/build/intermediates/exploded-aar/com.google.firebase/firebase-analytics-impl/9.0.0/AndroidManifest.xml:28:7-34:18
	android:enabled
		ADDED from [com.google.firebase:firebase-analytics:9.0.0] /Users/MacHome/Documents/clients/Elisa/WaygroupMigration/Waygroup/android/WaygroupNew/app/build/intermediates/exploded-aar/com.google.firebase/firebase-analytics/9.0.0/AndroidManifest.xml:30:11-33
	android:name
		ADDED from [com.google.firebase:firebase-analytics:9.0.0] /Users/MacHome/Documents/clients/Elisa/WaygroupMigration/Waygroup/android/WaygroupNew/app/build/intermediates/exploded-aar/com.google.firebase/firebase-analytics/9.0.0/AndroidManifest.xml:29:11-83
intent-filter#com.google.android.gms.measurement.UPLOAD
ADDED from [com.google.firebase:firebase-analytics:9.0.0] /Users/MacHome/Documents/clients/Elisa/WaygroupMigration/Waygroup/android/WaygroupNew/app/build/intermediates/exploded-aar/com.google.firebase/firebase-analytics/9.0.0/AndroidManifest.xml:31:9-33:25
action#com.google.android.gms.measurement.UPLOAD
ADDED from [com.google.firebase:firebase-analytics:9.0.0] /Users/MacHome/Documents/clients/Elisa/WaygroupMigration/Waygroup/android/WaygroupNew/app/build/intermediates/exploded-aar/com.google.firebase/firebase-analytics/9.0.0/AndroidManifest.xml:32:11-77
	android:name
		ADDED from [com.google.firebase:firebase-analytics:9.0.0] /Users/MacHome/Documents/clients/Elisa/WaygroupMigration/Waygroup/android/WaygroupNew/app/build/intermediates/exploded-aar/com.google.firebase/firebase-analytics/9.0.0/AndroidManifest.xml:32:19-75
service#com.google.android.gms.measurement.AppMeasurementService
ADDED from [com.google.firebase:firebase-analytics:9.0.0] /Users/MacHome/Documents/clients/Elisa/WaygroupMigration/Waygroup/android/WaygroupNew/app/build/intermediates/exploded-aar/com.google.firebase/firebase-analytics/9.0.0/AndroidManifest.xml:36:7-39:37
MERGED from [com.google.firebase:firebase-analytics-impl:9.0.0] /Users/MacHome/Documents/clients/Elisa/WaygroupMigration/Waygroup/android/WaygroupNew/app/build/intermediates/exploded-aar/com.google.firebase/firebase-analytics-impl/9.0.0/AndroidManifest.xml:36:7-39:37
	android:exported
		ADDED from [com.google.firebase:firebase-analytics:9.0.0] /Users/MacHome/Documents/clients/Elisa/WaygroupMigration/Waygroup/android/WaygroupNew/app/build/intermediates/exploded-aar/com.google.firebase/firebase-analytics/9.0.0/AndroidManifest.xml:39:11-35
	android:enabled
		ADDED from [com.google.firebase:firebase-analytics:9.0.0] /Users/MacHome/Documents/clients/Elisa/WaygroupMigration/Waygroup/android/WaygroupNew/app/build/intermediates/exploded-aar/com.google.firebase/firebase-analytics/9.0.0/AndroidManifest.xml:38:11-33
	android:name
		ADDED from [com.google.firebase:firebase-analytics:9.0.0] /Users/MacHome/Documents/clients/Elisa/WaygroupMigration/Waygroup/android/WaygroupNew/app/build/intermediates/exploded-aar/com.google.firebase/firebase-analytics/9.0.0/AndroidManifest.xml:37:11-82
receiver#com.google.firebase.iid.FirebaseInstanceIdReceiver
ADDED from [com.google.firebase:firebase-iid:9.0.0] /Users/MacHome/Documents/clients/Elisa/WaygroupMigration/Waygroup/android/WaygroupNew/app/build/intermediates/exploded-aar/com.google.firebase/firebase-iid/9.0.0/AndroidManifest.xml:32:9-41:20
	android:exported
		ADDED from [com.google.firebase:firebase-iid:9.0.0] /Users/MacHome/Documents/clients/Elisa/WaygroupMigration/Waygroup/android/WaygroupNew/app/build/intermediates/exploded-aar/com.google.firebase/firebase-iid/9.0.0/AndroidManifest.xml:34:13-36
	android:permission
		ADDED from [com.google.firebase:firebase-iid:9.0.0] /Users/MacHome/Documents/clients/Elisa/WaygroupMigration/Waygroup/android/WaygroupNew/app/build/intermediates/exploded-aar/com.google.firebase/firebase-iid/9.0.0/AndroidManifest.xml:35:13-73
	android:name
		ADDED from [com.google.firebase:firebase-iid:9.0.0] /Users/MacHome/Documents/clients/Elisa/WaygroupMigration/Waygroup/android/WaygroupNew/app/build/intermediates/exploded-aar/com.google.firebase/firebase-iid/9.0.0/AndroidManifest.xml:33:13-78
intent-filter#${applicationId}+com.google.android.c2dm.intent.RECEIVE+com.google.android.c2dm.intent.REGISTRATION
ADDED from [com.google.firebase:firebase-iid:9.0.0] /Users/MacHome/Documents/clients/Elisa/WaygroupMigration/Waygroup/android/WaygroupNew/app/build/intermediates/exploded-aar/com.google.firebase/firebase-iid/9.0.0/AndroidManifest.xml:36:13-40:29
category#${applicationId}
ADDED from [com.google.firebase:firebase-iid:9.0.0] /Users/MacHome/Documents/clients/Elisa/WaygroupMigration/Waygroup/android/WaygroupNew/app/build/intermediates/exploded-aar/com.google.firebase/firebase-iid/9.0.0/AndroidManifest.xml:39:17-61
	android:name
		ADDED from [com.google.firebase:firebase-iid:9.0.0] /Users/MacHome/Documents/clients/Elisa/WaygroupMigration/Waygroup/android/WaygroupNew/app/build/intermediates/exploded-aar/com.google.firebase/firebase-iid/9.0.0/AndroidManifest.xml:39:27-58
receiver#com.google.firebase.iid.FirebaseInstanceIdInternalReceiver
ADDED from [com.google.firebase:firebase-iid:9.0.0] /Users/MacHome/Documents/clients/Elisa/WaygroupMigration/Waygroup/android/WaygroupNew/app/build/intermediates/exploded-aar/com.google.firebase/firebase-iid/9.0.0/AndroidManifest.xml:45:9-47:40
	android:exported
		ADDED from [com.google.firebase:firebase-iid:9.0.0] /Users/MacHome/Documents/clients/Elisa/WaygroupMigration/Waygroup/android/WaygroupNew/app/build/intermediates/exploded-aar/com.google.firebase/firebase-iid/9.0.0/AndroidManifest.xml:47:13-37
	android:name
		ADDED from [com.google.firebase:firebase-iid:9.0.0] /Users/MacHome/Documents/clients/Elisa/WaygroupMigration/Waygroup/android/WaygroupNew/app/build/intermediates/exploded-aar/com.google.firebase/firebase-iid/9.0.0/AndroidManifest.xml:46:13-86
service#com.google.firebase.iid.FirebaseInstanceIdService
ADDED from [com.google.firebase:firebase-iid:9.0.0] /Users/MacHome/Documents/clients/Elisa/WaygroupMigration/Waygroup/android/WaygroupNew/app/build/intermediates/exploded-aar/com.google.firebase/firebase-iid/9.0.0/AndroidManifest.xml:51:9-57:19
	android:exported
		ADDED from [com.google.firebase:firebase-iid:9.0.0] /Users/MacHome/Documents/clients/Elisa/WaygroupMigration/Waygroup/android/WaygroupNew/app/build/intermediates/exploded-aar/com.google.firebase/firebase-iid/9.0.0/AndroidManifest.xml:53:13-36
	android:name
		ADDED from [com.google.firebase:firebase-iid:9.0.0] /Users/MacHome/Documents/clients/Elisa/WaygroupMigration/Waygroup/android/WaygroupNew/app/build/intermediates/exploded-aar/com.google.firebase/firebase-iid/9.0.0/AndroidManifest.xml:52:13-77
intent-filter#com.google.firebase.INSTANCE_ID_EVENT
ADDED from [com.google.firebase:firebase-iid:9.0.0] /Users/MacHome/Documents/clients/Elisa/WaygroupMigration/Waygroup/android/WaygroupNew/app/build/intermediates/exploded-aar/com.google.firebase/firebase-iid/9.0.0/AndroidManifest.xml:54:13-56:29
	android:priority
		ADDED from [com.google.firebase:firebase-iid:9.0.0] /Users/MacHome/Documents/clients/Elisa/WaygroupMigration/Waygroup/android/WaygroupNew/app/build/intermediates/exploded-aar/com.google.firebase/firebase-iid/9.0.0/AndroidManifest.xml:54:28-51
action#com.google.firebase.INSTANCE_ID_EVENT
ADDED from [com.google.firebase:firebase-iid:9.0.0] /Users/MacHome/Documents/clients/Elisa/WaygroupMigration/Waygroup/android/WaygroupNew/app/build/intermediates/exploded-aar/com.google.firebase/firebase-iid/9.0.0/AndroidManifest.xml:55:17-80
	android:name
		ADDED from [com.google.firebase:firebase-iid:9.0.0] /Users/MacHome/Documents/clients/Elisa/WaygroupMigration/Waygroup/android/WaygroupNew/app/build/intermediates/exploded-aar/com.google.firebase/firebase-iid/9.0.0/AndroidManifest.xml:55:25-77
